<?xml version="1.0" encoding="utf-8"?>
<!DOCTYPE eagle SYSTEM "eagle.dtd">
<eagle version="8.3.1">
<drawing>
<settings>
<setting alwaysvectorfont="yes"/>
<setting verticaltext="up"/>
</settings>
<grid distance="0.1" unitdist="inch" unit="inch" style="lines" multiple="1" display="no" altdistance="0.01" altunitdist="inch" altunit="inch"/>
<layers>
<layer number="1" name="Top" color="4" fill="1" visible="no" active="no"/>
<layer number="16" name="Bottom" color="1" fill="1" visible="no" active="no"/>
<layer number="17" name="Pads" color="2" fill="1" visible="no" active="no"/>
<layer number="18" name="Vias" color="2" fill="1" visible="no" active="no"/>
<layer number="19" name="Unrouted" color="6" fill="1" visible="no" active="no"/>
<layer number="20" name="Dimension" color="15" fill="1" visible="no" active="no"/>
<layer number="21" name="tPlace" color="7" fill="1" visible="no" active="no"/>
<layer number="22" name="bPlace" color="7" fill="1" visible="no" active="no"/>
<layer number="23" name="tOrigins" color="15" fill="1" visible="no" active="no"/>
<layer number="24" name="bOrigins" color="15" fill="1" visible="no" active="no"/>
<layer number="25" name="tNames" color="7" fill="1" visible="no" active="no"/>
<layer number="26" name="bNames" color="7" fill="1" visible="no" active="no"/>
<layer number="27" name="tValues" color="7" fill="1" visible="no" active="no"/>
<layer number="28" name="bValues" color="7" fill="1" visible="no" active="no"/>
<layer number="29" name="tStop" color="7" fill="3" visible="no" active="no"/>
<layer number="30" name="bStop" color="7" fill="6" visible="no" active="no"/>
<layer number="31" name="tCream" color="7" fill="4" visible="no" active="no"/>
<layer number="32" name="bCream" color="7" fill="5" visible="no" active="no"/>
<layer number="33" name="tFinish" color="6" fill="3" visible="no" active="no"/>
<layer number="34" name="bFinish" color="6" fill="6" visible="no" active="no"/>
<layer number="35" name="tGlue" color="7" fill="4" visible="no" active="no"/>
<layer number="36" name="bGlue" color="7" fill="5" visible="no" active="no"/>
<layer number="37" name="tTest" color="7" fill="1" visible="no" active="no"/>
<layer number="38" name="bTest" color="7" fill="1" visible="no" active="no"/>
<layer number="39" name="tKeepout" color="4" fill="11" visible="no" active="no"/>
<layer number="40" name="bKeepout" color="1" fill="11" visible="no" active="no"/>
<layer number="41" name="tRestrict" color="4" fill="10" visible="no" active="no"/>
<layer number="42" name="bRestrict" color="1" fill="10" visible="no" active="no"/>
<layer number="43" name="vRestrict" color="2" fill="10" visible="no" active="no"/>
<layer number="44" name="Drills" color="7" fill="1" visible="no" active="no"/>
<layer number="45" name="Holes" color="7" fill="1" visible="no" active="no"/>
<layer number="46" name="Milling" color="3" fill="1" visible="no" active="no"/>
<layer number="47" name="Measures" color="7" fill="1" visible="no" active="no"/>
<layer number="48" name="Document" color="7" fill="1" visible="no" active="no"/>
<layer number="49" name="Reference" color="7" fill="1" visible="no" active="no"/>
<layer number="51" name="tDocu" color="7" fill="1" visible="no" active="no"/>
<layer number="52" name="bDocu" color="7" fill="1" visible="no" active="no"/>
<layer number="90" name="Modules" color="5" fill="1" visible="yes" active="yes"/>
<layer number="91" name="Nets" color="2" fill="1" visible="yes" active="yes"/>
<layer number="92" name="Busses" color="1" fill="1" visible="yes" active="yes"/>
<layer number="93" name="Pins" color="2" fill="1" visible="no" active="yes"/>
<layer number="94" name="Symbols" color="4" fill="1" visible="yes" active="yes"/>
<layer number="95" name="Names" color="7" fill="1" visible="yes" active="yes"/>
<layer number="96" name="Values" color="7" fill="1" visible="yes" active="yes"/>
<layer number="97" name="Info" color="7" fill="1" visible="yes" active="yes"/>
<layer number="98" name="Guide" color="6" fill="1" visible="yes" active="yes"/>
<layer number="99" name="SpiceOrder" color="5" fill="1" visible="yes" active="yes"/>
</layers>
<schematic xreflabel="%F%N/%S.%C%R" xrefpart="/%S.%C%R">
<libraries>
<library name="con-ptr500" urn="urn:adsk.eagle:library:181">
<description>&lt;b&gt;PTR Connectors&lt;/b&gt;&lt;p&gt;
Aug. 2004 / PTR Meßtechnik:&lt;br&gt;
Die Bezeichnung der Serie AK505 wurde geändert.&lt;br&gt;
Es handelt sich hierbei um AK500 in horizontaler Ausführung.&lt;p&gt;
&lt;TABLE BORDER=0 CELLSPACING=1 CELLPADDING=2&gt;
  &lt;TR&gt;
    &lt;TD ALIGN=LEFT&gt;
      &lt;FONT SIZE=4 FACE=ARIAL&gt;&lt;B&gt;Alte Bezeichnung&lt;/B&gt;&lt;/FONT&gt;
    &lt;/TD&gt;
    &lt;TD ALIGN=LEFT&gt;
      &lt;FONT SIZE=4 FACE=ARIAL&gt;&lt;B&gt;Neue Bezeichnung&lt;/B&gt;&lt;/FONT&gt;
    &lt;/TD&gt;
  &lt;/TR&gt;
  &lt;TR&gt;
    &lt;TD ALIGN=LEFT&gt;
      &lt;B&gt;
      &lt;FONT SIZE=3 FACE=ARIAL color="#FF0000"&gt;AK505/2,grau&lt;/FONT&gt;
      &lt;/B&gt;
    &lt;/TD&gt;
    &lt;TD ALIGN=LEFT&gt;
      &lt;B&gt;
      &lt;FONT SIZE=3 FACE=ARIAL color="#0000FF"&gt;AK500/2-5.0-H-GRAU&lt;/FONT&gt;
      &lt;/B&gt;
    &lt;/TD&gt;
  &lt;/TR&gt;
  &lt;TR&gt;
    &lt;TD ALIGN=LEFT&gt;
      &lt;B&gt;
      &lt;FONT SIZE=3 FACE=ARIAL color="#FF0000"&gt;AK505/2DS,grau&lt;/FONT&gt;
      &lt;/B&gt;
    &lt;/TD&gt;
    &lt;TD ALIGN=LEFT&gt;
      &lt;B&gt;
      &lt;FONT SIZE=3 FACE=ARIAL color="#0000FF"&gt;AK500/2DS-5.0-H-GRAU&lt;/FONT&gt;
      &lt;/B&gt;
    &lt;/TD&gt;
  &lt;/TR&gt;
  &lt;TR&gt;
    &lt;TD ALIGN=LEFT&gt;
      &lt;B&gt;
      &lt;FONT SIZE=3 FACE=ARIAL color="#FF0000"&gt;AKZ505/2,grau&lt;/FONT&gt;
      &lt;/B&gt;
    &lt;/TD&gt;
    &lt;TD ALIGN=LEFT&gt;
      &lt;B&gt;
      &lt;FONT SIZE=3 FACE=ARIAL color="#0000FF"&gt;AKZ500/2-5.08-H-GRAU&lt;/FONT&gt;
      &lt;/B&gt;
    &lt;/TD&gt;
  &lt;/TABLE&gt;

&lt;author&gt;Created by librarian@cadsoft.de&lt;/author&gt;</description>
<packages>
<package name="AK500/2-H" urn="urn:adsk.eagle:footprint:9865/1" library_version="1">
<description>&lt;b&gt;CONNECTOR&lt;/b&gt;&lt;p&gt;
Aug. 2004 / PTR Meßtechnik:&lt;br&gt;
Die Bezeichnung der Serie AK505 wurde geändert.&lt;br&gt;
Es handelt sich hierbei um AK500 in horizontaler Ausführung.</description>
<wire x1="-5.08" y1="-7.239" x2="-5.08" y2="-3.81" width="0.1524" layer="21"/>
<wire x1="5.08" y1="2.794" x2="-5.08" y2="2.794" width="0.1524" layer="21"/>
<wire x1="-5.08" y1="-7.239" x2="-4.318" y2="-7.239" width="0.1524" layer="21"/>
<wire x1="5.08" y1="2.794" x2="5.08" y2="-3.429" width="0.1524" layer="21"/>
<wire x1="-5.08" y1="-3.429" x2="5.08" y2="-3.429" width="0.1524" layer="21"/>
<wire x1="-5.08" y1="-3.429" x2="-5.08" y2="2.794" width="0.1524" layer="21"/>
<wire x1="5.08" y1="-3.429" x2="5.08" y2="-3.81" width="0.1524" layer="21"/>
<wire x1="5.461" y1="2.794" x2="5.461" y2="-3.429" width="0.1524" layer="21"/>
<wire x1="5.461" y1="-3.429" x2="5.08" y2="-3.429" width="0.1524" layer="21"/>
<wire x1="5.461" y1="2.794" x2="5.08" y2="2.794" width="0.1524" layer="21"/>
<wire x1="-0.4826" y1="2.159" x2="-0.4826" y2="-2.794" width="0.1524" layer="21"/>
<wire x1="-4.5466" y1="-2.794" x2="-0.4826" y2="-2.794" width="0.1524" layer="21"/>
<wire x1="-4.5466" y1="-2.794" x2="-4.5466" y2="2.159" width="0.1524" layer="21"/>
<wire x1="-0.4826" y1="2.159" x2="-4.5466" y2="2.159" width="0.1524" layer="21"/>
<wire x1="0.4826" y1="2.159" x2="0.4826" y2="-2.794" width="0.1524" layer="21"/>
<wire x1="0.4826" y1="-2.794" x2="4.5466" y2="-2.794" width="0.1524" layer="21"/>
<wire x1="4.5466" y1="-2.794" x2="4.5466" y2="2.159" width="0.1524" layer="21"/>
<wire x1="4.5466" y1="2.159" x2="0.4826" y2="2.159" width="0.1524" layer="21"/>
<wire x1="4.8006" y1="-3.048" x2="0.2286" y2="-3.048" width="0.0508" layer="21"/>
<wire x1="4.8006" y1="-3.048" x2="4.8006" y2="2.413" width="0.0508" layer="21"/>
<wire x1="0.2286" y1="2.413" x2="4.8006" y2="2.413" width="0.0508" layer="21"/>
<wire x1="0.2286" y1="2.413" x2="0.2286" y2="-3.048" width="0.0508" layer="21"/>
<wire x1="-0.2286" y1="2.413" x2="-0.2286" y2="-3.048" width="0.0508" layer="21"/>
<wire x1="-4.8006" y1="2.413" x2="-0.2286" y2="2.413" width="0.0508" layer="21"/>
<wire x1="-4.8006" y1="2.413" x2="-4.8006" y2="-3.048" width="0.0508" layer="21"/>
<wire x1="-0.2286" y1="-3.048" x2="-4.8006" y2="-3.048" width="0.0508" layer="21"/>
<wire x1="-4.5466" y1="0" x2="-0.4826" y2="0" width="0.1524" layer="21" curve="-180"/>
<wire x1="-4.5466" y1="-2.413" x2="-4.2926" y2="-2.667" width="0.1524" layer="21" curve="90"/>
<wire x1="-0.7366" y1="-2.667" x2="-0.4826" y2="-2.413" width="0.1524" layer="21" curve="90"/>
<wire x1="-0.7366" y1="-2.667" x2="-4.2926" y2="-2.667" width="0.1524" layer="21"/>
<wire x1="-1.3716" y1="-2.413" x2="-1.1176" y2="-2.667" width="0.1524" layer="21" curve="90"/>
<wire x1="-3.9116" y1="-2.667" x2="-3.6576" y2="-2.413" width="0.1524" layer="21" curve="90"/>
<wire x1="-3.6576" y1="-0.127" x2="-3.6576" y2="-0.762" width="0.1524" layer="51"/>
<wire x1="-3.6576" y1="-0.127" x2="-1.3716" y2="-0.127" width="0.1524" layer="51"/>
<wire x1="-1.3716" y1="-0.127" x2="-1.3716" y2="-0.762" width="0.1524" layer="51"/>
<wire x1="-3.6576" y1="-0.762" x2="-1.3716" y2="-0.762" width="0.1524" layer="51"/>
<wire x1="-3.6576" y1="-0.762" x2="-3.6576" y2="-2.413" width="0.1524" layer="21"/>
<wire x1="-1.3716" y1="-0.762" x2="-1.3716" y2="-2.413" width="0.1524" layer="21"/>
<wire x1="5.08" y1="-3.81" x2="-5.08" y2="-3.81" width="0.0508" layer="21"/>
<wire x1="-5.08" y1="-3.81" x2="-5.08" y2="-3.429" width="0.1524" layer="21"/>
<wire x1="5.08" y1="-3.81" x2="5.08" y2="-7.239" width="0.1524" layer="21"/>
<wire x1="0.4826" y1="0" x2="4.5466" y2="0" width="0.1524" layer="21" curve="-180"/>
<wire x1="1.3716" y1="-0.127" x2="3.6576" y2="-0.127" width="0.1524" layer="51"/>
<wire x1="1.3716" y1="-0.127" x2="1.3716" y2="-0.762" width="0.1524" layer="51"/>
<wire x1="1.3716" y1="-0.762" x2="3.6576" y2="-0.762" width="0.1524" layer="51"/>
<wire x1="1.3716" y1="-0.762" x2="1.3716" y2="-2.413" width="0.1524" layer="21"/>
<wire x1="3.6576" y1="-0.762" x2="3.6576" y2="-2.413" width="0.1524" layer="21"/>
<wire x1="3.6576" y1="-0.127" x2="3.6576" y2="-0.762" width="0.1524" layer="51"/>
<wire x1="1.1176" y1="-2.667" x2="1.3716" y2="-2.413" width="0.1524" layer="21" curve="90"/>
<wire x1="3.6576" y1="-2.413" x2="3.9116" y2="-2.667" width="0.1524" layer="21" curve="90"/>
<wire x1="4.2926" y1="-2.667" x2="0.7366" y2="-2.667" width="0.1524" layer="21"/>
<wire x1="4.2926" y1="-2.667" x2="4.5466" y2="-2.413" width="0.1524" layer="21" curve="90"/>
<wire x1="0.4826" y1="-2.413" x2="0.7366" y2="-2.667" width="0.1524" layer="21" curve="90"/>
<wire x1="-0.762" y1="-7.366" x2="-0.762" y2="-7.239" width="0.1524" layer="21"/>
<wire x1="-0.762" y1="-7.239" x2="0.762" y2="-7.239" width="0.1524" layer="21"/>
<wire x1="-4.318" y1="-7.366" x2="-4.318" y2="-7.239" width="0.1524" layer="21"/>
<wire x1="-4.318" y1="-7.239" x2="-2.794" y2="-7.239" width="0.1524" layer="21"/>
<wire x1="-4.318" y1="-7.366" x2="-2.794" y2="-7.366" width="0.1524" layer="21"/>
<wire x1="-2.794" y1="-7.239" x2="-2.794" y2="-7.366" width="0.1524" layer="21"/>
<wire x1="-2.794" y1="-7.239" x2="-2.286" y2="-7.239" width="0.1524" layer="21"/>
<wire x1="-2.286" y1="-7.239" x2="-0.762" y2="-7.239" width="0.1524" layer="21"/>
<wire x1="-2.286" y1="-7.366" x2="-2.286" y2="-7.239" width="0.1524" layer="21"/>
<wire x1="-2.286" y1="-7.366" x2="-0.762" y2="-7.366" width="0.1524" layer="21"/>
<wire x1="2.286" y1="-7.239" x2="2.286" y2="-7.366" width="0.1524" layer="21"/>
<wire x1="2.286" y1="-7.239" x2="2.794" y2="-7.239" width="0.1524" layer="21"/>
<wire x1="0.762" y1="-7.366" x2="2.286" y2="-7.366" width="0.1524" layer="21"/>
<wire x1="2.794" y1="-7.366" x2="2.794" y2="-7.239" width="0.1524" layer="21"/>
<wire x1="2.794" y1="-7.239" x2="4.318" y2="-7.239" width="0.1524" layer="21"/>
<wire x1="2.794" y1="-7.366" x2="4.318" y2="-7.366" width="0.1524" layer="21"/>
<wire x1="4.318" y1="-7.366" x2="4.318" y2="-7.239" width="0.1524" layer="21"/>
<wire x1="4.318" y1="-7.239" x2="5.08" y2="-7.239" width="0.1524" layer="21"/>
<wire x1="0.762" y1="-7.366" x2="0.762" y2="-7.239" width="0.1524" layer="21"/>
<wire x1="0.762" y1="-7.239" x2="2.286" y2="-7.239" width="0.1524" layer="21"/>
<circle x="-2.5146" y="0" radius="1.397" width="0.1524" layer="51"/>
<circle x="2.5146" y="0" radius="1.397" width="0.1524" layer="51"/>
<pad name="1" x="-2.5146" y="0" drill="1.3208" shape="long" rot="R90"/>
<pad name="2" x="2.5146" y="0" drill="1.3208" shape="long" rot="R90"/>
<text x="-5.08" y="3.556" size="1.778" layer="25" ratio="10">&gt;NAME</text>
<text x="-5.08" y="-9.525" size="1.778" layer="27" ratio="10">&gt;VALUE</text>
<text x="-3.175" y="-5.715" size="1.27" layer="21" ratio="10">1</text>
<text x="1.905" y="-5.715" size="1.27" layer="21" ratio="10">2</text>
<rectangle x1="-3.6576" y1="-1.524" x2="-1.3716" y2="-0.762" layer="51"/>
<rectangle x1="1.3716" y1="-1.524" x2="3.6576" y2="-0.762" layer="51"/>
<rectangle x1="-3.6576" y1="-2.667" x2="-1.3716" y2="-1.524" layer="21"/>
<rectangle x1="1.3716" y1="-2.667" x2="3.6576" y2="-1.524" layer="21"/>
</package>
</packages>
<packages3d>
<package3d name="AK500/2-H" urn="urn:adsk.eagle:package:9901/1" type="box" library_version="1">
<description>CONNECTOR
Aug. 2004 / PTR Meßtechnik:
Die Bezeichnung der Serie AK505 wurde geändert.
Es handelt sich hierbei um AK500 in horizontaler Ausführung.</description>
</package3d>
</packages3d>
<symbols>
<symbol name="KL" urn="urn:adsk.eagle:symbol:9841/1" library_version="1">
<circle x="1.27" y="0" radius="1.27" width="0.254" layer="94"/>
<text x="-1.27" y="0.889" size="1.778" layer="95" rot="R180">&gt;NAME</text>
<pin name="KL" x="5.08" y="0" visible="off" length="short" direction="pas" rot="R180"/>
</symbol>
<symbol name="KLV" urn="urn:adsk.eagle:symbol:9842/1" library_version="1">
<circle x="1.27" y="0" radius="1.27" width="0.254" layer="94"/>
<text x="-1.27" y="0.889" size="1.778" layer="95" rot="R180">&gt;NAME</text>
<text x="-3.81" y="-3.683" size="1.778" layer="96">&gt;VALUE</text>
<pin name="KL" x="5.08" y="0" visible="off" length="short" direction="pas" rot="R180"/>
</symbol>
</symbols>
<devicesets>
<deviceset name="AK500/2-H" urn="urn:adsk.eagle:component:9938/1" prefix="X" uservalue="yes" library_version="1">
<description>&lt;b&gt;CONNECTOR&lt;/b&gt;&lt;p&gt;
Aug. 2004 / PTR Meßtechnik:&lt;br&gt;
Die Bezeichnung der Serie AK505 wurde geändert.&lt;br&gt;
Es handelt sich hierbei um AK500 in horizontaler Ausführung.</description>
<gates>
<gate name="-1" symbol="KL" x="0" y="5.08" addlevel="always"/>
<gate name="-2" symbol="KLV" x="0" y="0" addlevel="always"/>
</gates>
<devices>
<device name="" package="AK500/2-H">
<connects>
<connect gate="-1" pin="KL" pad="1"/>
<connect gate="-2" pin="KL" pad="2"/>
</connects>
<package3dinstances>
<package3dinstance package3d_urn="urn:adsk.eagle:package:9901/1"/>
</package3dinstances>
<technologies>
<technology name="">
<attribute name="MF" value="" constant="no"/>
<attribute name="MPN" value="" constant="no"/>
<attribute name="OC_FARNELL" value="unknown" constant="no"/>
<attribute name="OC_NEWARK" value="unknown" constant="no"/>
</technology>
</technologies>
</device>
</devices>
</deviceset>
</devicesets>
</library>
<library name="diode" urn="urn:adsk.eagle:library:210">
<description>&lt;b&gt;Diodes&lt;/b&gt;&lt;p&gt;
Based on the following sources:
&lt;ul&gt;
&lt;li&gt;Motorola : www.onsemi.com
&lt;li&gt;Fairchild : www.fairchildsemi.com
&lt;li&gt;Philips : www.semiconductors.com
&lt;li&gt;Vishay : www.vishay.de
&lt;/ul&gt;
&lt;author&gt;Created by librarian@cadsoft.de&lt;/author&gt;</description>
<packages>
<package name="DO35-10" urn="urn:adsk.eagle:footprint:43092/1" library_version="2">
<description>&lt;B&gt;DIODE&lt;/B&gt;&lt;p&gt;
diameter 2 mm, horizontal, grid 10.16 mm</description>
<wire x1="5.08" y1="0" x2="4.191" y2="0" width="0.508" layer="51"/>
<wire x1="-5.08" y1="0" x2="-4.191" y2="0" width="0.508" layer="51"/>
<wire x1="-0.635" y1="0" x2="0" y2="0" width="0.1524" layer="21"/>
<wire x1="1.016" y1="0.635" x2="1.016" y2="-0.635" width="0.1524" layer="21"/>
<wire x1="1.016" y1="-0.635" x2="0" y2="0" width="0.1524" layer="21"/>
<wire x1="0" y1="0" x2="1.524" y2="0" width="0.1524" layer="21"/>
<wire x1="0" y1="0" x2="1.016" y2="0.635" width="0.1524" layer="21"/>
<wire x1="0" y1="0.635" x2="0" y2="0" width="0.1524" layer="21"/>
<wire x1="0" y1="0" x2="0" y2="-0.635" width="0.1524" layer="21"/>
<wire x1="2.032" y1="1.016" x2="2.286" y2="0.762" width="0.1524" layer="21" curve="-90"/>
<wire x1="-2.286" y1="0.762" x2="-2.032" y2="1.016" width="0.1524" layer="21" curve="-90"/>
<wire x1="-2.286" y1="-0.762" x2="-2.032" y2="-1.016" width="0.1524" layer="21" curve="90"/>
<wire x1="2.032" y1="-1.016" x2="2.286" y2="-0.762" width="0.1524" layer="21" curve="90"/>
<wire x1="2.286" y1="-0.762" x2="2.286" y2="0.762" width="0.1524" layer="21"/>
<wire x1="-2.286" y1="0.762" x2="-2.286" y2="-0.762" width="0.1524" layer="21"/>
<wire x1="-2.032" y1="1.016" x2="2.032" y2="1.016" width="0.1524" layer="21"/>
<wire x1="-2.032" y1="-1.016" x2="2.032" y2="-1.016" width="0.1524" layer="21"/>
<pad name="C" x="-5.08" y="0" drill="0.8128" shape="long"/>
<pad name="A" x="5.08" y="0" drill="0.8128" shape="long"/>
<text x="-2.159" y="1.27" size="1.27" layer="25" ratio="10">&gt;NAME</text>
<text x="-2.159" y="-2.667" size="1.27" layer="27" ratio="10">&gt;VALUE</text>
<rectangle x1="-1.905" y1="-1.016" x2="-1.397" y2="1.016" layer="21"/>
<rectangle x1="2.286" y1="-0.254" x2="4.191" y2="0.254" layer="21"/>
<rectangle x1="-4.191" y1="-0.254" x2="-2.286" y2="0.254" layer="21"/>
</package>
<package name="DO35-7" urn="urn:adsk.eagle:footprint:43093/1" library_version="2">
<description>&lt;B&gt;DIODE&lt;/B&gt;&lt;p&gt;
diameter 2 mm, horizontal, grid 7.62 mm</description>
<wire x1="3.81" y1="0" x2="2.921" y2="0" width="0.508" layer="51"/>
<wire x1="-3.81" y1="0" x2="-2.921" y2="0" width="0.508" layer="51"/>
<wire x1="-0.635" y1="0" x2="0" y2="0" width="0.1524" layer="21"/>
<wire x1="1.016" y1="0.635" x2="1.016" y2="-0.635" width="0.1524" layer="21"/>
<wire x1="1.016" y1="-0.635" x2="0" y2="0" width="0.1524" layer="21"/>
<wire x1="0" y1="0" x2="1.524" y2="0" width="0.1524" layer="21"/>
<wire x1="0" y1="0" x2="1.016" y2="0.635" width="0.1524" layer="21"/>
<wire x1="0" y1="0.635" x2="0" y2="0" width="0.1524" layer="21"/>
<wire x1="0" y1="0" x2="0" y2="-0.635" width="0.1524" layer="21"/>
<wire x1="2.032" y1="1.016" x2="2.286" y2="0.762" width="0.1524" layer="21" curve="-90"/>
<wire x1="2.286" y1="0.762" x2="2.286" y2="-0.762" width="0.1524" layer="21"/>
<wire x1="2.032" y1="-1.016" x2="2.286" y2="-0.762" width="0.1524" layer="21" curve="90"/>
<wire x1="-2.286" y1="0.762" x2="-2.032" y2="1.016" width="0.1524" layer="21" curve="-90"/>
<wire x1="-2.286" y1="-0.762" x2="-2.032" y2="-1.016" width="0.1524" layer="21" curve="90"/>
<wire x1="-2.032" y1="-1.016" x2="2.032" y2="-1.016" width="0.1524" layer="21"/>
<wire x1="-2.286" y1="0.762" x2="-2.286" y2="-0.762" width="0.1524" layer="21"/>
<wire x1="-2.032" y1="1.016" x2="2.032" y2="1.016" width="0.1524" layer="21"/>
<pad name="C" x="-3.81" y="0" drill="0.8128" shape="long"/>
<pad name="A" x="3.81" y="0" drill="0.8128" shape="long"/>
<text x="-2.286" y="1.27" size="1.27" layer="25" ratio="10">&gt;NAME</text>
<text x="-2.286" y="-2.667" size="1.27" layer="27" ratio="10">&gt;VALUE</text>
<rectangle x1="-1.905" y1="-1.016" x2="-1.397" y2="1.016" layer="21"/>
<rectangle x1="2.286" y1="-0.254" x2="2.921" y2="0.254" layer="21"/>
<rectangle x1="-2.921" y1="-0.254" x2="-2.286" y2="0.254" layer="21"/>
</package>
</packages>
<packages3d>
<package3d name="DO35-10" urn="urn:adsk.eagle:package:43344/2" type="model" library_version="2">
<description>DIODE
diameter 2 mm, horizontal, grid 10.16 mm</description>
</package3d>
<package3d name="DO35-7" urn="urn:adsk.eagle:package:43339/1" type="box" library_version="2">
<description>DIODE
diameter 2 mm, horizontal, grid 7.62 mm</description>
</package3d>
</packages3d>
<symbols>
<symbol name="D" urn="urn:adsk.eagle:symbol:43091/1" library_version="2">
<wire x1="-1.27" y1="-1.27" x2="1.27" y2="0" width="0.254" layer="94"/>
<wire x1="1.27" y1="0" x2="-1.27" y2="1.27" width="0.254" layer="94"/>
<wire x1="1.27" y1="1.27" x2="1.27" y2="0" width="0.254" layer="94"/>
<wire x1="-1.27" y1="1.27" x2="-1.27" y2="-1.27" width="0.254" layer="94"/>
<wire x1="1.27" y1="0" x2="1.27" y2="-1.27" width="0.254" layer="94"/>
<text x="2.54" y="0.4826" size="1.778" layer="95">&gt;NAME</text>
<text x="2.54" y="-2.3114" size="1.778" layer="96">&gt;VALUE</text>
<text x="-2.54" y="0" size="0.4064" layer="99" align="center">SpiceOrder 1</text>
<text x="2.54" y="0" size="0.4064" layer="99" align="center">SpiceOrder 2</text>
<pin name="A" x="-2.54" y="0" visible="off" length="short" direction="pas"/>
<pin name="C" x="2.54" y="0" visible="off" length="short" direction="pas" rot="R180"/>
</symbol>
</symbols>
<devicesets>
<deviceset name="1N4148" urn="urn:adsk.eagle:component:43496/2" prefix="D" library_version="2">
<description>&lt;B&gt;DIODE&lt;/B&gt;&lt;p&gt;
high speed (Philips)</description>
<gates>
<gate name="G$1" symbol="D" x="0" y="0"/>
</gates>
<devices>
<device name="DO35-10" package="DO35-10">
<connects>
<connect gate="G$1" pin="A" pad="A"/>
<connect gate="G$1" pin="C" pad="C"/>
</connects>
<package3dinstances>
<package3dinstance package3d_urn="urn:adsk.eagle:package:43344/2"/>
</package3dinstances>
<technologies>
<technology name=""/>
</technologies>
</device>
<device name="DO35-7" package="DO35-7">
<connects>
<connect gate="G$1" pin="A" pad="A"/>
<connect gate="G$1" pin="C" pad="C"/>
</connects>
<package3dinstances>
<package3dinstance package3d_urn="urn:adsk.eagle:package:43339/1"/>
</package3dinstances>
<technologies>
<technology name=""/>
</technologies>
</device>
</devices>
</deviceset>
</devicesets>
</library>
<library name="pinhead" urn="urn:adsk.eagle:library:325">
<description>&lt;b&gt;Pin Header Connectors&lt;/b&gt;&lt;p&gt;
&lt;author&gt;Created by librarian@cadsoft.de&lt;/author&gt;</description>
<packages>
<package name="1X02" urn="urn:adsk.eagle:footprint:22309/1" library_version="2">
<description>&lt;b&gt;PIN HEADER&lt;/b&gt;</description>
<wire x1="-1.905" y1="1.27" x2="-0.635" y2="1.27" width="0.1524" layer="21"/>
<wire x1="-0.635" y1="1.27" x2="0" y2="0.635" width="0.1524" layer="21"/>
<wire x1="0" y1="0.635" x2="0" y2="-0.635" width="0.1524" layer="21"/>
<wire x1="0" y1="-0.635" x2="-0.635" y2="-1.27" width="0.1524" layer="21"/>
<wire x1="-2.54" y1="0.635" x2="-2.54" y2="-0.635" width="0.1524" layer="21"/>
<wire x1="-1.905" y1="1.27" x2="-2.54" y2="0.635" width="0.1524" layer="21"/>
<wire x1="-2.54" y1="-0.635" x2="-1.905" y2="-1.27" width="0.1524" layer="21"/>
<wire x1="-0.635" y1="-1.27" x2="-1.905" y2="-1.27" width="0.1524" layer="21"/>
<wire x1="0" y1="0.635" x2="0.635" y2="1.27" width="0.1524" layer="21"/>
<wire x1="0.635" y1="1.27" x2="1.905" y2="1.27" width="0.1524" layer="21"/>
<wire x1="1.905" y1="1.27" x2="2.54" y2="0.635" width="0.1524" layer="21"/>
<wire x1="2.54" y1="0.635" x2="2.54" y2="-0.635" width="0.1524" layer="21"/>
<wire x1="2.54" y1="-0.635" x2="1.905" y2="-1.27" width="0.1524" layer="21"/>
<wire x1="1.905" y1="-1.27" x2="0.635" y2="-1.27" width="0.1524" layer="21"/>
<wire x1="0.635" y1="-1.27" x2="0" y2="-0.635" width="0.1524" layer="21"/>
<pad name="1" x="-1.27" y="0" drill="1.016" shape="long" rot="R90"/>
<pad name="2" x="1.27" y="0" drill="1.016" shape="long" rot="R90"/>
<text x="-2.6162" y="1.8288" size="1.27" layer="25" ratio="10">&gt;NAME</text>
<text x="-2.54" y="-3.175" size="1.27" layer="27">&gt;VALUE</text>
<rectangle x1="-1.524" y1="-0.254" x2="-1.016" y2="0.254" layer="51"/>
<rectangle x1="1.016" y1="-0.254" x2="1.524" y2="0.254" layer="51"/>
</package>
<package name="1X02/90" urn="urn:adsk.eagle:footprint:22310/1" library_version="2">
<description>&lt;b&gt;PIN HEADER&lt;/b&gt;</description>
<wire x1="-2.54" y1="-1.905" x2="0" y2="-1.905" width="0.1524" layer="21"/>
<wire x1="0" y1="-1.905" x2="0" y2="0.635" width="0.1524" layer="21"/>
<wire x1="0" y1="0.635" x2="-2.54" y2="0.635" width="0.1524" layer="21"/>
<wire x1="-2.54" y1="0.635" x2="-2.54" y2="-1.905" width="0.1524" layer="21"/>
<wire x1="-1.27" y1="6.985" x2="-1.27" y2="1.27" width="0.762" layer="21"/>
<wire x1="0" y1="-1.905" x2="2.54" y2="-1.905" width="0.1524" layer="21"/>
<wire x1="2.54" y1="-1.905" x2="2.54" y2="0.635" width="0.1524" layer="21"/>
<wire x1="2.54" y1="0.635" x2="0" y2="0.635" width="0.1524" layer="21"/>
<wire x1="1.27" y1="6.985" x2="1.27" y2="1.27" width="0.762" layer="21"/>
<pad name="1" x="-1.27" y="-3.81" drill="1.016" shape="long" rot="R90"/>
<pad name="2" x="1.27" y="-3.81" drill="1.016" shape="long" rot="R90"/>
<text x="-3.175" y="-3.81" size="1.27" layer="25" ratio="10" rot="R90">&gt;NAME</text>
<text x="4.445" y="-3.81" size="1.27" layer="27" rot="R90">&gt;VALUE</text>
<rectangle x1="-1.651" y1="0.635" x2="-0.889" y2="1.143" layer="21"/>
<rectangle x1="0.889" y1="0.635" x2="1.651" y2="1.143" layer="21"/>
<rectangle x1="-1.651" y1="-2.921" x2="-0.889" y2="-1.905" layer="21"/>
<rectangle x1="0.889" y1="-2.921" x2="1.651" y2="-1.905" layer="21"/>
</package>
</packages>
<packages3d>
<package3d name="1X02" urn="urn:adsk.eagle:package:22435/2" type="model" library_version="2">
<description>PIN HEADER</description>
</package3d>
<package3d name="1X02/90" urn="urn:adsk.eagle:package:22437/1" type="box" library_version="2">
<description>PIN HEADER</description>
</package3d>
</packages3d>
<symbols>
<symbol name="PINHD2" urn="urn:adsk.eagle:symbol:22308/1" library_version="2">
<wire x1="-6.35" y1="-2.54" x2="1.27" y2="-2.54" width="0.4064" layer="94"/>
<wire x1="1.27" y1="-2.54" x2="1.27" y2="5.08" width="0.4064" layer="94"/>
<wire x1="1.27" y1="5.08" x2="-6.35" y2="5.08" width="0.4064" layer="94"/>
<wire x1="-6.35" y1="5.08" x2="-6.35" y2="-2.54" width="0.4064" layer="94"/>
<text x="-6.35" y="5.715" size="1.778" layer="95">&gt;NAME</text>
<text x="-6.35" y="-5.08" size="1.778" layer="96">&gt;VALUE</text>
<pin name="1" x="-2.54" y="2.54" visible="pad" length="short" direction="pas" function="dot"/>
<pin name="2" x="-2.54" y="0" visible="pad" length="short" direction="pas" function="dot"/>
</symbol>
</symbols>
<devicesets>
<deviceset name="PINHD-1X2" urn="urn:adsk.eagle:component:22516/2" prefix="JP" uservalue="yes" library_version="2">
<description>&lt;b&gt;PIN HEADER&lt;/b&gt;</description>
<gates>
<gate name="G$1" symbol="PINHD2" x="0" y="0"/>
</gates>
<devices>
<device name="" package="1X02">
<connects>
<connect gate="G$1" pin="1" pad="1"/>
<connect gate="G$1" pin="2" pad="2"/>
</connects>
<package3dinstances>
<package3dinstance package3d_urn="urn:adsk.eagle:package:22435/2"/>
</package3dinstances>
<technologies>
<technology name=""/>
</technologies>
</device>
<device name="/90" package="1X02/90">
<connects>
<connect gate="G$1" pin="1" pad="1"/>
<connect gate="G$1" pin="2" pad="2"/>
</connects>
<package3dinstances>
<package3dinstance package3d_urn="urn:adsk.eagle:package:22437/1"/>
</package3dinstances>
<technologies>
<technology name=""/>
</technologies>
</device>
</devices>
</deviceset>
</devicesets>
</library>
</libraries>
<attributes>
</attributes>
<variantdefs>
</variantdefs>
<classes>
<class number="0" name="default" width="0" drill="0">
</class>
</classes>
<parts>
<part name="X1" library="con-ptr500" library_urn="urn:adsk.eagle:library:181" deviceset="AK500/2-H" device="" package3d_urn="urn:adsk.eagle:package:9901/1"/>
<part name="X2" library="con-ptr500" library_urn="urn:adsk.eagle:library:181" deviceset="AK500/2-H" device="" package3d_urn="urn:adsk.eagle:package:9901/1"/>
<part name="D1" library="diode" library_urn="urn:adsk.eagle:library:210" deviceset="1N4148" device="DO35-10" package3d_urn="urn:adsk.eagle:package:43344/2"/>
<part name="JP3" library="pinhead" library_urn="urn:adsk.eagle:library:325" deviceset="PINHD-1X2" device="" package3d_urn="urn:adsk.eagle:package:22435/2"/>
<part name="JP4" library="pinhead" library_urn="urn:adsk.eagle:library:325" deviceset="PINHD-1X2" device="" package3d_urn="urn:adsk.eagle:package:22435/2"/>
<part name="JP1" library="pinhead" library_urn="urn:adsk.eagle:library:325" deviceset="PINHD-1X2" device="" package3d_urn="urn:adsk.eagle:package:22435/2"/>
<part name="JP2" library="pinhead" library_urn="urn:adsk.eagle:library:325" deviceset="PINHD-1X2" device="" package3d_urn="urn:adsk.eagle:package:22435/2"/>
</parts>
<sheets>
<sheet>
<plain>
</plain>
<instances>
<instance part="X1" gate="-1" x="0" y="81.28"/>
<instance part="X1" gate="-2" x="0" y="76.2"/>
<instance part="X2" gate="-1" x="68.58" y="76.2" rot="R180"/>
<instance part="X2" gate="-2" x="68.58" y="81.28" rot="R180"/>
<instance part="D1" gate="G$1" x="45.72" y="78.74"/>
<instance part="JP3" gate="G$1" x="25.4" y="86.36" rot="R180"/>
<instance part="JP4" gate="G$1" x="25.4" y="73.66" rot="R180"/>
<instance part="JP1" gate="G$1" x="17.78" y="83.82"/>
<instance part="JP2" gate="G$1" x="17.78" y="71.12"/>
</instances>
<busses>
</busses>
<nets>
<net name="N$1" class="0">
<segment>
<pinref part="D1" gate="G$1" pin="C"/>
<wire x1="48.26" y1="78.74" x2="53.34" y2="78.74" width="0.1524" layer="91"/>
<wire x1="53.34" y1="78.74" x2="53.34" y2="81.28" width="0.1524" layer="91"/>
<wire x1="33.02" y1="81.28" x2="53.34" y2="81.28" width="0.1524" layer="91"/>
<pinref part="X2" gate="-2" pin="KL"/>
<wire x1="53.34" y1="81.28" x2="63.5" y2="81.28" width="0.1524" layer="91"/>
<junction x="53.34" y="81.28"/>
<pinref part="JP3" gate="G$1" pin="1"/>
<wire x1="27.94" y1="83.82" x2="33.02" y2="83.82" width="0.1524" layer="91"/>
<wire x1="33.02" y1="83.82" x2="33.02" y2="81.28" width="0.1524" layer="91"/>
<pinref part="JP3" gate="G$1" pin="2"/>
<wire x1="27.94" y1="86.36" x2="33.02" y2="86.36" width="0.1524" layer="91"/>
<wire x1="33.02" y1="86.36" x2="33.02" y2="83.82" width="0.1524" layer="91"/>
<junction x="33.02" y="83.82"/>
</segment>
</net>
<net name="N$2" class="0">
<segment>
<pinref part="D1" gate="G$1" pin="A"/>
<wire x1="43.18" y1="78.74" x2="40.64" y2="78.74" width="0.1524" layer="91"/>
<wire x1="40.64" y1="78.74" x2="40.64" y2="76.2" width="0.1524" layer="91"/>
<wire x1="40.64" y1="76.2" x2="35.56" y2="76.2" width="0.1524" layer="91"/>
<pinref part="X2" gate="-1" pin="KL"/>
<wire x1="40.64" y1="76.2" x2="63.5" y2="76.2" width="0.1524" layer="91"/>
<junction x="40.64" y="76.2"/>
<pinref part="JP4" gate="G$1" pin="2"/>
<wire x1="27.94" y1="76.2" x2="27.94" y2="73.66" width="0.1524" layer="91"/>
<pinref part="JP4" gate="G$1" pin="1"/>
<wire x1="35.56" y1="76.2" x2="27.94" y2="76.2" width="0.1524" layer="91"/>
<wire x1="27.94" y1="73.66" x2="27.94" y2="71.12" width="0.1524" layer="91"/>
<wire x1="27.94" y1="73.66" x2="35.56" y2="73.66" width="0.1524" layer="91"/>
<wire x1="35.56" y1="73.66" x2="35.56" y2="76.2" width="0.1524" layer="91"/>
<junction x="27.94" y="73.66"/>
<junction x="35.56" y="76.2"/>
</segment>
</net>
<net name="N$3" class="0">
<segment>
<pinref part="X1" gate="-1" pin="KL"/>
<wire x1="5.08" y1="81.28" x2="7.62" y2="81.28" width="0.1524" layer="91"/>
<wire x1="15.24" y1="83.82" x2="12.7" y2="83.82" width="0.1524" layer="91"/>
<wire x1="12.7" y1="83.82" x2="7.62" y2="83.82" width="0.1524" layer="91"/>
<wire x1="7.62" y1="83.82" x2="7.62" y2="81.28" width="0.1524" layer="91"/>
<pinref part="JP1" gate="G$1" pin="2"/>
<pinref part="JP1" gate="G$1" pin="1"/>
<wire x1="15.24" y1="86.36" x2="12.7" y2="86.36" width="0.1524" layer="91"/>
<wire x1="12.7" y1="86.36" x2="12.7" y2="83.82" width="0.1524" layer="91"/>
<junction x="12.7" y="83.82"/>
</segment>
</net>
<net name="N$4" class="0">
<segment>
<pinref part="X1" gate="-2" pin="KL"/>
<wire x1="5.08" y1="76.2" x2="7.62" y2="76.2" width="0.1524" layer="91"/>
<wire x1="10.16" y1="71.12" x2="7.62" y2="71.12" width="0.1524" layer="91"/>
<wire x1="7.62" y1="71.12" x2="7.62" y2="76.2" width="0.1524" layer="91"/>
<pinref part="JP2" gate="G$1" pin="1"/>
<wire x1="15.24" y1="73.66" x2="10.16" y2="73.66" width="0.1524" layer="91"/>
<wire x1="10.16" y1="73.66" x2="10.16" y2="71.12" width="0.1524" layer="91"/>
<junction x="10.16" y="71.12"/>
<pinref part="JP2" gate="G$1" pin="2"/>
<wire x1="15.24" y1="71.12" x2="10.16" y2="71.12" width="0.1524" layer="91"/>
</segment>
</net>
</nets>
</sheet>
</sheets>
<errors>
<approved hash="108,1,27.94,73.66,N$2,,,,,"/>
<approved hash="113,1,0.745866,81.28,X1,,,,,"/>
<approved hash="113,1,67.8341,76.2,X2,,,,,"/>
<approved hash="113,1,27.7029,83.5939,JP3,,,,,"/>
<approved hash="113,1,27.7029,70.8939,JP4,,,,,"/>
<approved hash="113,1,15.4771,86.5861,JP1,,,,,"/>
<approved hash="113,1,15.4771,73.8861,JP2,,,,,"/>
</errors>
</schematic>
</drawing>
<compatibility>
<note version="8.2" severity="warning">
Since Version 8.2, EAGLE supports online libraries. The ids
of those online libraries will not be understood (or retained)
with this version.
</note>
<note version="8.3" severity="warning">
Since Version 8.3, EAGLE supports URNs for individual library
assets (packages, symbols, and devices). The URNs of those assets
will not be understood (or retained) with this version.
</note>
<note version="8.3" severity="warning">
Since Version 8.3, EAGLE supports the association of 3D packages
with devices in libraries, schematics, and board files. Those 3D
packages will not be understood (or retained) with this version.
</note>
</compatibility>
</eagle>
