<?xml version="1.0" encoding="utf-8"?>
<!DOCTYPE eagle SYSTEM "eagle.dtd">
<eagle version="8.3.1">
<drawing>
<settings>
<setting alwaysvectorfont="no"/>
<setting verticaltext="up"/>
</settings>
<grid distance="2.54" unitdist="mm" unit="mm" style="lines" multiple="1" display="yes" altdistance="2.54" altunitdist="mm" altunit="mm"/>
<layers>
<layer number="1" name="Top" color="4" fill="1" visible="no" active="no"/>
<layer number="16" name="Bottom" color="1" fill="1" visible="no" active="no"/>
<layer number="17" name="Pads" color="2" fill="1" visible="no" active="no"/>
<layer number="18" name="Vias" color="2" fill="1" visible="no" active="no"/>
<layer number="19" name="Unrouted" color="6" fill="1" visible="no" active="no"/>
<layer number="20" name="Dimension" color="15" fill="1" visible="no" active="no"/>
<layer number="21" name="tPlace" color="7" fill="1" visible="no" active="no"/>
<layer number="22" name="bPlace" color="7" fill="1" visible="no" active="no"/>
<layer number="23" name="tOrigins" color="15" fill="1" visible="no" active="no"/>
<layer number="24" name="bOrigins" color="15" fill="1" visible="no" active="no"/>
<layer number="25" name="tNames" color="7" fill="1" visible="no" active="no"/>
<layer number="26" name="bNames" color="7" fill="1" visible="no" active="no"/>
<layer number="27" name="tValues" color="7" fill="1" visible="no" active="no"/>
<layer number="28" name="bValues" color="7" fill="1" visible="no" active="no"/>
<layer number="29" name="tStop" color="7" fill="3" visible="no" active="no"/>
<layer number="30" name="bStop" color="7" fill="6" visible="no" active="no"/>
<layer number="31" name="tCream" color="7" fill="4" visible="no" active="no"/>
<layer number="32" name="bCream" color="7" fill="5" visible="no" active="no"/>
<layer number="33" name="tFinish" color="6" fill="3" visible="no" active="no"/>
<layer number="34" name="bFinish" color="6" fill="6" visible="no" active="no"/>
<layer number="35" name="tGlue" color="7" fill="4" visible="no" active="no"/>
<layer number="36" name="bGlue" color="7" fill="5" visible="no" active="no"/>
<layer number="37" name="tTest" color="7" fill="1" visible="no" active="no"/>
<layer number="38" name="bTest" color="7" fill="1" visible="no" active="no"/>
<layer number="39" name="tKeepout" color="4" fill="11" visible="no" active="no"/>
<layer number="40" name="bKeepout" color="1" fill="11" visible="no" active="no"/>
<layer number="41" name="tRestrict" color="4" fill="10" visible="no" active="no"/>
<layer number="42" name="bRestrict" color="1" fill="10" visible="no" active="no"/>
<layer number="43" name="vRestrict" color="2" fill="10" visible="no" active="no"/>
<layer number="44" name="Drills" color="7" fill="1" visible="no" active="no"/>
<layer number="45" name="Holes" color="7" fill="1" visible="no" active="no"/>
<layer number="46" name="Milling" color="3" fill="1" visible="no" active="no"/>
<layer number="47" name="Measures" color="7" fill="1" visible="no" active="no"/>
<layer number="48" name="Document" color="7" fill="1" visible="no" active="no"/>
<layer number="49" name="Reference" color="7" fill="1" visible="no" active="no"/>
<layer number="51" name="tDocu" color="7" fill="1" visible="no" active="no"/>
<layer number="52" name="bDocu" color="7" fill="1" visible="no" active="no"/>
<layer number="90" name="Modules" color="5" fill="1" visible="yes" active="yes"/>
<layer number="91" name="Nets" color="2" fill="1" visible="yes" active="yes"/>
<layer number="92" name="Busses" color="1" fill="1" visible="yes" active="yes"/>
<layer number="93" name="Pins" color="2" fill="1" visible="no" active="yes"/>
<layer number="94" name="Symbols" color="4" fill="1" visible="yes" active="yes"/>
<layer number="95" name="Names" color="7" fill="1" visible="yes" active="yes"/>
<layer number="96" name="Values" color="7" fill="1" visible="yes" active="yes"/>
<layer number="97" name="Info" color="7" fill="1" visible="yes" active="yes"/>
<layer number="98" name="Guide" color="6" fill="1" visible="yes" active="yes"/>
</layers>
<schematic xreflabel="%F%N/%S.%C%R" xrefpart="/%S.%C%R">
<libraries>
<library name="wirepad" urn="urn:adsk.eagle:library:412">
<description>&lt;b&gt;Single Pads&lt;/b&gt;&lt;p&gt;
&lt;author&gt;Created by librarian@cadsoft.de&lt;/author&gt;</description>
<packages>
<package name="1,6/0,8" urn="urn:adsk.eagle:footprint:30809/1" library_version="1">
<description>&lt;b&gt;THROUGH-HOLE PAD&lt;/b&gt;</description>
<wire x1="-0.762" y1="0.762" x2="-0.508" y2="0.762" width="0.1524" layer="21"/>
<wire x1="-0.762" y1="0.762" x2="-0.762" y2="0.508" width="0.1524" layer="21"/>
<wire x1="0.762" y1="0.762" x2="0.762" y2="0.508" width="0.1524" layer="21"/>
<wire x1="0.762" y1="0.762" x2="0.508" y2="0.762" width="0.1524" layer="21"/>
<wire x1="0.762" y1="-0.508" x2="0.762" y2="-0.762" width="0.1524" layer="21"/>
<wire x1="0.762" y1="-0.762" x2="0.508" y2="-0.762" width="0.1524" layer="21"/>
<wire x1="-0.508" y1="-0.762" x2="-0.762" y2="-0.762" width="0.1524" layer="21"/>
<wire x1="-0.762" y1="-0.762" x2="-0.762" y2="-0.508" width="0.1524" layer="21"/>
<circle x="0" y="0" radius="0.635" width="0.1524" layer="51"/>
<pad name="1" x="0" y="0" drill="0.8128" diameter="1.6002" shape="octagon"/>
<text x="-0.762" y="1.016" size="1.27" layer="25" ratio="10">&gt;NAME</text>
<text x="0" y="0.6" size="0.0254" layer="27">&gt;VALUE</text>
</package>
<package name="1,6/0,9" urn="urn:adsk.eagle:footprint:30812/1" library_version="1">
<description>&lt;b&gt;THROUGH-HOLE PAD&lt;/b&gt;</description>
<wire x1="-0.508" y1="0.762" x2="-0.762" y2="0.762" width="0.1524" layer="21"/>
<wire x1="-0.762" y1="0.762" x2="-0.762" y2="0.508" width="0.1524" layer="21"/>
<wire x1="-0.762" y1="-0.508" x2="-0.762" y2="-0.762" width="0.1524" layer="21"/>
<wire x1="-0.762" y1="-0.762" x2="-0.508" y2="-0.762" width="0.1524" layer="21"/>
<wire x1="0.508" y1="-0.762" x2="0.762" y2="-0.762" width="0.1524" layer="21"/>
<wire x1="0.762" y1="-0.762" x2="0.762" y2="-0.508" width="0.1524" layer="21"/>
<wire x1="0.762" y1="0.508" x2="0.762" y2="0.762" width="0.1524" layer="21"/>
<wire x1="0.762" y1="0.762" x2="0.508" y2="0.762" width="0.1524" layer="21"/>
<circle x="0" y="0" radius="0.635" width="0.1524" layer="51"/>
<pad name="1" x="0" y="0" drill="0.9144" diameter="1.6002" shape="octagon"/>
<text x="-0.762" y="1.016" size="1.27" layer="25" ratio="10">&gt;NAME</text>
<text x="0" y="0.6" size="0.0254" layer="27">&gt;VALUE</text>
</package>
<package name="2,15/1,0" urn="urn:adsk.eagle:footprint:30813/1" library_version="1">
<description>&lt;b&gt;THROUGH-HOLE PAD&lt;/b&gt;</description>
<wire x1="1.143" y1="-1.143" x2="1.143" y2="-0.635" width="0.1524" layer="21"/>
<wire x1="1.143" y1="-1.143" x2="0.635" y2="-1.143" width="0.1524" layer="21"/>
<wire x1="1.143" y1="0.635" x2="1.143" y2="1.143" width="0.1524" layer="21"/>
<wire x1="1.143" y1="1.143" x2="0.635" y2="1.143" width="0.1524" layer="21"/>
<wire x1="-0.635" y1="1.143" x2="-1.143" y2="1.143" width="0.1524" layer="21"/>
<wire x1="-1.143" y1="1.143" x2="-1.143" y2="0.635" width="0.1524" layer="21"/>
<wire x1="-1.143" y1="-0.635" x2="-1.143" y2="-1.143" width="0.1524" layer="21"/>
<wire x1="-1.143" y1="-1.143" x2="-0.635" y2="-1.143" width="0.1524" layer="21"/>
<circle x="0" y="0" radius="1.016" width="0.1524" layer="51"/>
<pad name="1" x="0" y="0" drill="1.016" diameter="2.159" shape="octagon"/>
<text x="-1.143" y="1.397" size="1.27" layer="25" ratio="10">&gt;NAME</text>
<text x="0" y="1" size="0.0254" layer="27">&gt;VALUE</text>
</package>
<package name="2,54/0,8" urn="urn:adsk.eagle:footprint:30820/1" library_version="1">
<description>&lt;b&gt;THROUGH-HOLE PAD&lt;/b&gt;</description>
<wire x1="-1.27" y1="1.27" x2="-0.762" y2="1.27" width="0.1524" layer="21"/>
<wire x1="-1.27" y1="1.27" x2="-1.27" y2="0.762" width="0.1524" layer="21"/>
<wire x1="1.27" y1="1.27" x2="1.27" y2="0.762" width="0.1524" layer="21"/>
<wire x1="1.27" y1="1.27" x2="0.762" y2="1.27" width="0.1524" layer="21"/>
<wire x1="1.27" y1="-0.762" x2="1.27" y2="-1.27" width="0.1524" layer="21"/>
<wire x1="1.27" y1="-1.27" x2="0.762" y2="-1.27" width="0.1524" layer="21"/>
<wire x1="-0.762" y1="-1.27" x2="-1.27" y2="-1.27" width="0.1524" layer="21"/>
<wire x1="-1.27" y1="-1.27" x2="-1.27" y2="-0.762" width="0.1524" layer="21"/>
<circle x="0" y="0" radius="0.635" width="0.1524" layer="51"/>
<pad name="1" x="0" y="0" drill="0.8128" diameter="2.54" shape="octagon"/>
<text x="-1.27" y="1.524" size="1.27" layer="25" ratio="10">&gt;NAME</text>
<text x="0" y="0.6" size="0.0254" layer="27">&gt;VALUE</text>
</package>
<package name="2,54/0,9" urn="urn:adsk.eagle:footprint:30821/1" library_version="1">
<description>&lt;b&gt;THROUGH-HOLE PAD&lt;/b&gt;</description>
<wire x1="-1.27" y1="1.27" x2="-0.762" y2="1.27" width="0.1524" layer="21"/>
<wire x1="-1.27" y1="1.27" x2="-1.27" y2="0.762" width="0.1524" layer="21"/>
<wire x1="1.27" y1="1.27" x2="1.27" y2="0.762" width="0.1524" layer="21"/>
<wire x1="1.27" y1="1.27" x2="0.762" y2="1.27" width="0.1524" layer="21"/>
<wire x1="1.27" y1="-0.762" x2="1.27" y2="-1.27" width="0.1524" layer="21"/>
<wire x1="1.27" y1="-1.27" x2="0.762" y2="-1.27" width="0.1524" layer="21"/>
<wire x1="-0.762" y1="-1.27" x2="-1.27" y2="-1.27" width="0.1524" layer="21"/>
<wire x1="-1.27" y1="-1.27" x2="-1.27" y2="-0.762" width="0.1524" layer="21"/>
<circle x="0" y="0" radius="0.635" width="0.1524" layer="51"/>
<pad name="1" x="0" y="0" drill="0.9144" diameter="2.54" shape="octagon"/>
<text x="-1.27" y="1.524" size="1.27" layer="25" ratio="10">&gt;NAME</text>
<text x="0" y="0.6" size="0.0254" layer="27">&gt;VALUE</text>
</package>
<package name="2,54/1,0" urn="urn:adsk.eagle:footprint:30810/1" library_version="1">
<description>&lt;b&gt;THROUGH-HOLE PAD&lt;/b&gt;</description>
<wire x1="1.27" y1="1.27" x2="1.27" y2="0.762" width="0.1524" layer="21"/>
<wire x1="1.27" y1="1.27" x2="0.762" y2="1.27" width="0.1524" layer="21"/>
<wire x1="-1.27" y1="1.27" x2="-0.762" y2="1.27" width="0.1524" layer="21"/>
<wire x1="-1.27" y1="1.27" x2="-1.27" y2="0.762" width="0.1524" layer="21"/>
<wire x1="-1.27" y1="-1.27" x2="-1.27" y2="-0.762" width="0.1524" layer="21"/>
<wire x1="-1.27" y1="-1.27" x2="-0.762" y2="-1.27" width="0.1524" layer="21"/>
<wire x1="0.762" y1="-1.27" x2="1.27" y2="-1.27" width="0.1524" layer="21"/>
<wire x1="1.27" y1="-1.27" x2="1.27" y2="-0.762" width="0.1524" layer="21"/>
<circle x="0" y="0" radius="1.016" width="0.1524" layer="51"/>
<pad name="1" x="0" y="0" drill="1.016" diameter="2.54" shape="octagon"/>
<text x="-1.27" y="1.524" size="1.27" layer="25" ratio="10">&gt;NAME</text>
<text x="0" y="1" size="0.0254" layer="27">&gt;VALUE</text>
</package>
<package name="2,54/1,1" urn="urn:adsk.eagle:footprint:30818/1" library_version="1">
<description>&lt;b&gt;THROUGH-HOLE PAD&lt;/b&gt;</description>
<wire x1="1.27" y1="1.27" x2="1.27" y2="0.762" width="0.1524" layer="21"/>
<wire x1="1.27" y1="1.27" x2="0.762" y2="1.27" width="0.1524" layer="21"/>
<wire x1="-1.27" y1="1.27" x2="-1.27" y2="0.762" width="0.1524" layer="21"/>
<wire x1="-1.27" y1="1.27" x2="-0.762" y2="1.27" width="0.1524" layer="21"/>
<wire x1="-1.27" y1="-1.27" x2="-1.27" y2="-0.762" width="0.1524" layer="21"/>
<wire x1="-1.27" y1="-1.27" x2="-0.762" y2="-1.27" width="0.1524" layer="21"/>
<wire x1="1.27" y1="-1.27" x2="0.762" y2="-1.27" width="0.1524" layer="21"/>
<wire x1="1.27" y1="-1.27" x2="1.27" y2="-0.762" width="0.1524" layer="21"/>
<circle x="0" y="0" radius="1.016" width="0.1524" layer="51"/>
<pad name="1" x="0" y="0" drill="1.1176" diameter="2.54" shape="octagon"/>
<text x="-1.27" y="1.524" size="1.27" layer="25" ratio="10">&gt;NAME</text>
<text x="0" y="1" size="0.0254" layer="27">&gt;VALUE</text>
</package>
<package name="3,17/1,1" urn="urn:adsk.eagle:footprint:30814/1" library_version="1">
<description>&lt;b&gt;THROUGH-HOLE PAD&lt;/b&gt;</description>
<wire x1="1.524" y1="-1.016" x2="1.524" y2="-1.524" width="0.1524" layer="21"/>
<wire x1="1.524" y1="-1.524" x2="1.016" y2="-1.524" width="0.1524" layer="21"/>
<wire x1="-1.016" y1="-1.524" x2="-1.524" y2="-1.524" width="0.1524" layer="21"/>
<wire x1="-1.524" y1="-1.524" x2="-1.524" y2="-1.016" width="0.1524" layer="21"/>
<wire x1="-1.524" y1="1.016" x2="-1.524" y2="1.524" width="0.1524" layer="21"/>
<wire x1="-1.524" y1="1.524" x2="-1.016" y2="1.524" width="0.1524" layer="21"/>
<wire x1="1.016" y1="1.524" x2="1.524" y2="1.524" width="0.1524" layer="21"/>
<wire x1="1.524" y1="1.524" x2="1.524" y2="1.016" width="0.1524" layer="21"/>
<circle x="0" y="0" radius="1.27" width="0.1524" layer="51"/>
<pad name="1" x="0" y="0" drill="1.1176" diameter="3.175" shape="octagon"/>
<text x="-1.524" y="1.905" size="1.27" layer="25" ratio="10">&gt;NAME</text>
<text x="0" y="1.2" size="0.0254" layer="27">&gt;VALUE</text>
</package>
<package name="3,17/1,2" urn="urn:adsk.eagle:footprint:30824/1" library_version="1">
<description>&lt;b&gt;THROUGH-HOLE PAD&lt;/b&gt;</description>
<wire x1="1.524" y1="-1.016" x2="1.524" y2="-1.524" width="0.1524" layer="21"/>
<wire x1="1.524" y1="-1.524" x2="1.016" y2="-1.524" width="0.1524" layer="21"/>
<wire x1="-1.016" y1="-1.524" x2="-1.524" y2="-1.524" width="0.1524" layer="21"/>
<wire x1="-1.524" y1="-1.524" x2="-1.524" y2="-1.016" width="0.1524" layer="21"/>
<wire x1="-1.524" y1="1.016" x2="-1.524" y2="1.524" width="0.1524" layer="21"/>
<wire x1="-1.524" y1="1.524" x2="-1.016" y2="1.524" width="0.1524" layer="21"/>
<wire x1="1.016" y1="1.524" x2="1.524" y2="1.524" width="0.1524" layer="21"/>
<wire x1="1.524" y1="1.524" x2="1.524" y2="1.016" width="0.1524" layer="21"/>
<circle x="0" y="0" radius="1.27" width="0.1524" layer="51"/>
<pad name="1" x="0" y="0" drill="1.1938" diameter="3.175" shape="octagon"/>
<text x="-1.524" y="1.905" size="1.27" layer="25" ratio="10">&gt;NAME</text>
<text x="0" y="1.2" size="0.0254" layer="27">&gt;VALUE</text>
</package>
<package name="3,17/1,3" urn="urn:adsk.eagle:footprint:30815/1" library_version="1">
<description>&lt;b&gt;THROUGH-HOLE PAD&lt;/b&gt;</description>
<wire x1="1.524" y1="-1.016" x2="1.524" y2="-1.524" width="0.1524" layer="21"/>
<wire x1="1.524" y1="-1.524" x2="1.016" y2="-1.524" width="0.1524" layer="21"/>
<wire x1="-1.016" y1="-1.524" x2="-1.524" y2="-1.524" width="0.1524" layer="21"/>
<wire x1="-1.524" y1="-1.524" x2="-1.524" y2="-1.016" width="0.1524" layer="21"/>
<wire x1="-1.524" y1="1.016" x2="-1.524" y2="1.524" width="0.1524" layer="21"/>
<wire x1="-1.524" y1="1.524" x2="-1.016" y2="1.524" width="0.1524" layer="21"/>
<wire x1="1.016" y1="1.524" x2="1.524" y2="1.524" width="0.1524" layer="21"/>
<wire x1="1.524" y1="1.524" x2="1.524" y2="1.016" width="0.1524" layer="21"/>
<circle x="0" y="0" radius="1.27" width="0.1524" layer="51"/>
<pad name="1" x="0" y="0" drill="1.3208" diameter="3.175" shape="octagon"/>
<text x="-1.524" y="1.905" size="1.27" layer="25" ratio="10">&gt;NAME</text>
<text x="0" y="1.2" size="0.0254" layer="27">&gt;VALUE</text>
</package>
<package name="3,81/1,1" urn="urn:adsk.eagle:footprint:30811/1" library_version="1">
<description>&lt;b&gt;THROUGH-HOLE PAD&lt;/b&gt;</description>
<wire x1="1.905" y1="-1.27" x2="1.905" y2="-1.905" width="0.1524" layer="21"/>
<wire x1="1.905" y1="-1.905" x2="1.27" y2="-1.905" width="0.1524" layer="21"/>
<wire x1="-1.27" y1="-1.905" x2="-1.905" y2="-1.905" width="0.1524" layer="21"/>
<wire x1="-1.905" y1="-1.905" x2="-1.905" y2="-1.27" width="0.1524" layer="21"/>
<wire x1="-1.905" y1="1.27" x2="-1.905" y2="1.905" width="0.1524" layer="21"/>
<wire x1="-1.905" y1="1.905" x2="-1.27" y2="1.905" width="0.1524" layer="21"/>
<wire x1="1.27" y1="1.905" x2="1.905" y2="1.905" width="0.1524" layer="21"/>
<wire x1="1.905" y1="1.905" x2="1.905" y2="1.27" width="0.1524" layer="21"/>
<circle x="0" y="0" radius="1.27" width="0.1524" layer="51"/>
<pad name="1" x="0" y="0" drill="1.1176" diameter="3.81" shape="octagon"/>
<text x="-1.905" y="2.286" size="1.27" layer="25" ratio="10">&gt;NAME</text>
<text x="0" y="1.2" size="0.0254" layer="27">&gt;VALUE</text>
</package>
<package name="3,81/1,3" urn="urn:adsk.eagle:footprint:30816/1" library_version="1">
<description>&lt;b&gt;THROUGH-HOLE PAD&lt;/b&gt;</description>
<wire x1="1.905" y1="-1.27" x2="1.905" y2="-1.905" width="0.1524" layer="21"/>
<wire x1="1.905" y1="-1.905" x2="1.27" y2="-1.905" width="0.1524" layer="21"/>
<wire x1="-1.27" y1="-1.905" x2="-1.905" y2="-1.905" width="0.1524" layer="21"/>
<wire x1="-1.905" y1="-1.905" x2="-1.905" y2="-1.27" width="0.1524" layer="21"/>
<wire x1="-1.905" y1="1.27" x2="-1.905" y2="1.905" width="0.1524" layer="21"/>
<wire x1="-1.905" y1="1.905" x2="-1.27" y2="1.905" width="0.1524" layer="21"/>
<wire x1="1.27" y1="1.905" x2="1.905" y2="1.905" width="0.1524" layer="21"/>
<wire x1="1.905" y1="1.905" x2="1.905" y2="1.27" width="0.1524" layer="21"/>
<circle x="0" y="0" radius="1.27" width="0.1524" layer="51"/>
<pad name="1" x="0" y="0" drill="1.3208" diameter="3.81" shape="octagon"/>
<text x="-1.905" y="2.286" size="1.27" layer="25" ratio="10">&gt;NAME</text>
<text x="0" y="1.2" size="0.0254" layer="27">&gt;VALUE</text>
</package>
<package name="3,81/1,4" urn="urn:adsk.eagle:footprint:30817/1" library_version="1">
<description>&lt;b&gt;THROUGH-HOLE PAD&lt;/b&gt;</description>
<wire x1="1.905" y1="-1.27" x2="1.905" y2="-1.905" width="0.1524" layer="21"/>
<wire x1="1.905" y1="-1.905" x2="1.27" y2="-1.905" width="0.1524" layer="21"/>
<wire x1="-1.27" y1="-1.905" x2="-1.905" y2="-1.905" width="0.1524" layer="21"/>
<wire x1="-1.905" y1="-1.905" x2="-1.905" y2="-1.27" width="0.1524" layer="21"/>
<wire x1="-1.905" y1="1.27" x2="-1.905" y2="1.905" width="0.1524" layer="21"/>
<wire x1="-1.905" y1="1.905" x2="-1.27" y2="1.905" width="0.1524" layer="21"/>
<wire x1="1.27" y1="1.905" x2="1.905" y2="1.905" width="0.1524" layer="21"/>
<wire x1="1.905" y1="1.905" x2="1.905" y2="1.27" width="0.1524" layer="21"/>
<circle x="0" y="0" radius="1.27" width="0.1524" layer="51"/>
<pad name="1" x="0" y="0" drill="1.397" diameter="3.81" shape="octagon"/>
<text x="-1.905" y="2.286" size="1.27" layer="25" ratio="10">&gt;NAME</text>
<text x="0" y="1.2" size="0.0254" layer="27">&gt;VALUE</text>
</package>
<package name="4,16O1,6" urn="urn:adsk.eagle:footprint:30825/1" library_version="1">
<description>&lt;b&gt;THROUGH-HOLE PAD&lt;/b&gt;</description>
<pad name="1" x="0" y="0" drill="1.6002" diameter="4.1656" shape="octagon"/>
<text x="0" y="0" size="0.0254" layer="27">&gt;VALUE</text>
<text x="-2.1" y="2.2" size="1.27" layer="25">&gt;NAME</text>
</package>
<package name="5-1,8" urn="urn:adsk.eagle:footprint:30826/1" library_version="1">
<description>&lt;b&gt;THROUGH-HOLE PAD&lt;/b&gt;</description>
<wire x1="1.1684" y1="2.794" x2="-1.1684" y2="2.794" width="0.1524" layer="21"/>
<wire x1="-1.1684" y1="-2.794" x2="-1.1684" y2="2.794" width="0.1524" layer="21"/>
<wire x1="-1.1684" y1="-2.794" x2="1.1684" y2="-2.794" width="0.1524" layer="21"/>
<wire x1="1.1684" y1="2.794" x2="1.1684" y2="-2.794" width="0.1524" layer="21"/>
<smd name="1" x="0" y="0" dx="1.8288" dy="5.08" layer="1"/>
<text x="-1.524" y="-2.54" size="1.27" layer="25" ratio="10" rot="R90">&gt;NAME</text>
<text x="-0.1" y="2.8" size="0.0254" layer="27">&gt;VALUE</text>
</package>
<package name="5-2,5" urn="urn:adsk.eagle:footprint:30827/1" library_version="1">
<description>&lt;b&gt;THROUGH-HOLE PAD&lt;/b&gt;</description>
<wire x1="1.524" y1="2.794" x2="-1.524" y2="2.794" width="0.1524" layer="21"/>
<wire x1="-1.524" y1="-2.794" x2="-1.524" y2="2.794" width="0.1524" layer="21"/>
<wire x1="-1.524" y1="-2.794" x2="1.524" y2="-2.794" width="0.1524" layer="21"/>
<wire x1="1.524" y1="2.794" x2="1.524" y2="-2.794" width="0.1524" layer="21"/>
<smd name="1" x="0" y="0" dx="2.54" dy="5.08" layer="1"/>
<text x="-1.778" y="-2.54" size="1.27" layer="25" ratio="10" rot="R90">&gt;NAME</text>
<text x="-0.1" y="2.8" size="0.0254" layer="27">&gt;VALUE</text>
</package>
<package name="SMD1,27-2,54" urn="urn:adsk.eagle:footprint:30822/1" library_version="1">
<description>&lt;b&gt;SMD PAD&lt;/b&gt;</description>
<smd name="1" x="0" y="0" dx="1.27" dy="2.54" layer="1"/>
<text x="0" y="0" size="0.0254" layer="27">&gt;VALUE</text>
<text x="-0.8" y="-2.4" size="1.27" layer="25" rot="R90">&gt;NAME</text>
</package>
<package name="SMD2,54-5,08" urn="urn:adsk.eagle:footprint:30823/1" library_version="1">
<description>&lt;b&gt;SMD PAD&lt;/b&gt;</description>
<smd name="1" x="0" y="0" dx="2.54" dy="5.08" layer="1"/>
<text x="0" y="0" size="0.0254" layer="27">&gt;VALUE</text>
<text x="-1.5" y="-2.5" size="1.27" layer="25" rot="R90">&gt;NAME</text>
</package>
</packages>
<packages3d>
<package3d name="1,6/0,8" urn="urn:adsk.eagle:package:30830/1" type="box" library_version="1">
<description>THROUGH-HOLE PAD</description>
</package3d>
<package3d name="1,6/0,9" urn="urn:adsk.eagle:package:30840/1" type="box" library_version="1">
<description>THROUGH-HOLE PAD</description>
</package3d>
<package3d name="2,15/1,0" urn="urn:adsk.eagle:package:30831/1" type="box" library_version="1">
<description>THROUGH-HOLE PAD</description>
</package3d>
<package3d name="2,54/0,8" urn="urn:adsk.eagle:package:30838/1" type="box" library_version="1">
<description>THROUGH-HOLE PAD</description>
</package3d>
<package3d name="2,54/0,9" urn="urn:adsk.eagle:package:30847/1" type="box" library_version="1">
<description>THROUGH-HOLE PAD</description>
</package3d>
<package3d name="2,54/1,0" urn="urn:adsk.eagle:package:30828/1" type="box" library_version="1">
<description>THROUGH-HOLE PAD</description>
</package3d>
<package3d name="2,54/1,1" urn="urn:adsk.eagle:package:30836/1" type="box" library_version="1">
<description>THROUGH-HOLE PAD</description>
</package3d>
<package3d name="3,17/1,1" urn="urn:adsk.eagle:package:30832/1" type="box" library_version="1">
<description>THROUGH-HOLE PAD</description>
</package3d>
<package3d name="3,17/1,2" urn="urn:adsk.eagle:package:30842/1" type="box" library_version="1">
<description>THROUGH-HOLE PAD</description>
</package3d>
<package3d name="3,17/1,3" urn="urn:adsk.eagle:package:30833/1" type="box" library_version="1">
<description>THROUGH-HOLE PAD</description>
</package3d>
<package3d name="3,81/1,1" urn="urn:adsk.eagle:package:30829/1" type="box" library_version="1">
<description>THROUGH-HOLE PAD</description>
</package3d>
<package3d name="3,81/1,3" urn="urn:adsk.eagle:package:30834/1" type="box" library_version="1">
<description>THROUGH-HOLE PAD</description>
</package3d>
<package3d name="3,81/1,4" urn="urn:adsk.eagle:package:30835/1" type="box" library_version="1">
<description>THROUGH-HOLE PAD</description>
</package3d>
<package3d name="4,16O1,6" urn="urn:adsk.eagle:package:30843/1" type="box" library_version="1">
<description>THROUGH-HOLE PAD</description>
</package3d>
<package3d name="5-1,8" urn="urn:adsk.eagle:package:30844/1" type="box" library_version="1">
<description>THROUGH-HOLE PAD</description>
</package3d>
<package3d name="5-2,5" urn="urn:adsk.eagle:package:30845/1" type="box" library_version="1">
<description>THROUGH-HOLE PAD</description>
</package3d>
<package3d name="SMD1,27-2,54" urn="urn:adsk.eagle:package:30839/1" type="box" library_version="1">
<description>SMD PAD</description>
</package3d>
<package3d name="SMD2,54-5,08" urn="urn:adsk.eagle:package:30841/1" type="box" library_version="1">
<description>SMD PAD</description>
</package3d>
</packages3d>
<symbols>
<symbol name="PAD" urn="urn:adsk.eagle:symbol:30808/1" library_version="1">
<wire x1="-1.016" y1="1.016" x2="1.016" y2="-1.016" width="0.254" layer="94"/>
<wire x1="-1.016" y1="-1.016" x2="1.016" y2="1.016" width="0.254" layer="94"/>
<text x="-1.143" y="1.8542" size="1.778" layer="95">&gt;NAME</text>
<text x="-1.143" y="-3.302" size="1.778" layer="96">&gt;VALUE</text>
<pin name="P" x="2.54" y="0" visible="off" length="short" direction="pas" rot="R180"/>
</symbol>
</symbols>
<devicesets>
<deviceset name="WIREPAD" urn="urn:adsk.eagle:component:30861/1" prefix="PAD" library_version="1">
<description>&lt;b&gt;Wire PAD&lt;/b&gt; connect wire on PCB</description>
<gates>
<gate name="G$1" symbol="PAD" x="0" y="0"/>
</gates>
<devices>
<device name="1,6/0,8" package="1,6/0,8">
<connects>
<connect gate="G$1" pin="P" pad="1"/>
</connects>
<package3dinstances>
<package3dinstance package3d_urn="urn:adsk.eagle:package:30830/1"/>
</package3dinstances>
<technologies>
<technology name=""/>
</technologies>
</device>
<device name="1,6/0,9" package="1,6/0,9">
<connects>
<connect gate="G$1" pin="P" pad="1"/>
</connects>
<package3dinstances>
<package3dinstance package3d_urn="urn:adsk.eagle:package:30840/1"/>
</package3dinstances>
<technologies>
<technology name=""/>
</technologies>
</device>
<device name="2,15/1,0" package="2,15/1,0">
<connects>
<connect gate="G$1" pin="P" pad="1"/>
</connects>
<package3dinstances>
<package3dinstance package3d_urn="urn:adsk.eagle:package:30831/1"/>
</package3dinstances>
<technologies>
<technology name=""/>
</technologies>
</device>
<device name="2,54/0,8" package="2,54/0,8">
<connects>
<connect gate="G$1" pin="P" pad="1"/>
</connects>
<package3dinstances>
<package3dinstance package3d_urn="urn:adsk.eagle:package:30838/1"/>
</package3dinstances>
<technologies>
<technology name=""/>
</technologies>
</device>
<device name="2,54/0,9" package="2,54/0,9">
<connects>
<connect gate="G$1" pin="P" pad="1"/>
</connects>
<package3dinstances>
<package3dinstance package3d_urn="urn:adsk.eagle:package:30847/1"/>
</package3dinstances>
<technologies>
<technology name=""/>
</technologies>
</device>
<device name="2,54/1,0" package="2,54/1,0">
<connects>
<connect gate="G$1" pin="P" pad="1"/>
</connects>
<package3dinstances>
<package3dinstance package3d_urn="urn:adsk.eagle:package:30828/1"/>
</package3dinstances>
<technologies>
<technology name=""/>
</technologies>
</device>
<device name="2,54/1,1" package="2,54/1,1">
<connects>
<connect gate="G$1" pin="P" pad="1"/>
</connects>
<package3dinstances>
<package3dinstance package3d_urn="urn:adsk.eagle:package:30836/1"/>
</package3dinstances>
<technologies>
<technology name=""/>
</technologies>
</device>
<device name="3,17/1,1" package="3,17/1,1">
<connects>
<connect gate="G$1" pin="P" pad="1"/>
</connects>
<package3dinstances>
<package3dinstance package3d_urn="urn:adsk.eagle:package:30832/1"/>
</package3dinstances>
<technologies>
<technology name=""/>
</technologies>
</device>
<device name="3,17/1,2" package="3,17/1,2">
<connects>
<connect gate="G$1" pin="P" pad="1"/>
</connects>
<package3dinstances>
<package3dinstance package3d_urn="urn:adsk.eagle:package:30842/1"/>
</package3dinstances>
<technologies>
<technology name=""/>
</technologies>
</device>
<device name="3,17/1,3" package="3,17/1,3">
<connects>
<connect gate="G$1" pin="P" pad="1"/>
</connects>
<package3dinstances>
<package3dinstance package3d_urn="urn:adsk.eagle:package:30833/1"/>
</package3dinstances>
<technologies>
<technology name=""/>
</technologies>
</device>
<device name="3,81/1,1" package="3,81/1,1">
<connects>
<connect gate="G$1" pin="P" pad="1"/>
</connects>
<package3dinstances>
<package3dinstance package3d_urn="urn:adsk.eagle:package:30829/1"/>
</package3dinstances>
<technologies>
<technology name=""/>
</technologies>
</device>
<device name="3,81/1,3" package="3,81/1,3">
<connects>
<connect gate="G$1" pin="P" pad="1"/>
</connects>
<package3dinstances>
<package3dinstance package3d_urn="urn:adsk.eagle:package:30834/1"/>
</package3dinstances>
<technologies>
<technology name=""/>
</technologies>
</device>
<device name="3,81/1,4" package="3,81/1,4">
<connects>
<connect gate="G$1" pin="P" pad="1"/>
</connects>
<package3dinstances>
<package3dinstance package3d_urn="urn:adsk.eagle:package:30835/1"/>
</package3dinstances>
<technologies>
<technology name=""/>
</technologies>
</device>
<device name="4,16O1,6" package="4,16O1,6">
<connects>
<connect gate="G$1" pin="P" pad="1"/>
</connects>
<package3dinstances>
<package3dinstance package3d_urn="urn:adsk.eagle:package:30843/1"/>
</package3dinstances>
<technologies>
<technology name=""/>
</technologies>
</device>
<device name="SMD5-1,8" package="5-1,8">
<connects>
<connect gate="G$1" pin="P" pad="1"/>
</connects>
<package3dinstances>
<package3dinstance package3d_urn="urn:adsk.eagle:package:30844/1"/>
</package3dinstances>
<technologies>
<technology name=""/>
</technologies>
</device>
<device name="SMD5-2,5" package="5-2,5">
<connects>
<connect gate="G$1" pin="P" pad="1"/>
</connects>
<package3dinstances>
<package3dinstance package3d_urn="urn:adsk.eagle:package:30845/1"/>
</package3dinstances>
<technologies>
<technology name=""/>
</technologies>
</device>
<device name="SMD1,27-254" package="SMD1,27-2,54">
<connects>
<connect gate="G$1" pin="P" pad="1"/>
</connects>
<package3dinstances>
<package3dinstance package3d_urn="urn:adsk.eagle:package:30839/1"/>
</package3dinstances>
<technologies>
<technology name=""/>
</technologies>
</device>
<device name="SMD2,54-5,08" package="SMD2,54-5,08">
<connects>
<connect gate="G$1" pin="P" pad="1"/>
</connects>
<package3dinstances>
<package3dinstance package3d_urn="urn:adsk.eagle:package:30841/1"/>
</package3dinstances>
<technologies>
<technology name=""/>
</technologies>
</device>
</devices>
</deviceset>
</devicesets>
</library>
</libraries>
<attributes>
</attributes>
<variantdefs>
</variantdefs>
<classes>
<class number="0" name="default" width="0" drill="0">
</class>
</classes>
<parts>
<part name="PAD1" library="wirepad" library_urn="urn:adsk.eagle:library:412" deviceset="WIREPAD" device="SMD5-2,5" package3d_urn="urn:adsk.eagle:package:30845/1"/>
<part name="PAD2" library="wirepad" library_urn="urn:adsk.eagle:library:412" deviceset="WIREPAD" device="SMD5-2,5" package3d_urn="urn:adsk.eagle:package:30845/1"/>
<part name="PAD3" library="wirepad" library_urn="urn:adsk.eagle:library:412" deviceset="WIREPAD" device="SMD5-2,5" package3d_urn="urn:adsk.eagle:package:30845/1"/>
<part name="PAD4" library="wirepad" library_urn="urn:adsk.eagle:library:412" deviceset="WIREPAD" device="SMD5-2,5" package3d_urn="urn:adsk.eagle:package:30845/1"/>
<part name="PAD5" library="wirepad" library_urn="urn:adsk.eagle:library:412" deviceset="WIREPAD" device="SMD5-2,5" package3d_urn="urn:adsk.eagle:package:30845/1"/>
<part name="PAD6" library="wirepad" library_urn="urn:adsk.eagle:library:412" deviceset="WIREPAD" device="SMD5-2,5" package3d_urn="urn:adsk.eagle:package:30845/1"/>
<part name="PAD7" library="wirepad" library_urn="urn:adsk.eagle:library:412" deviceset="WIREPAD" device="SMD5-2,5" package3d_urn="urn:adsk.eagle:package:30845/1"/>
<part name="PAD8" library="wirepad" library_urn="urn:adsk.eagle:library:412" deviceset="WIREPAD" device="SMD5-2,5" package3d_urn="urn:adsk.eagle:package:30845/1"/>
<part name="PAD9" library="wirepad" library_urn="urn:adsk.eagle:library:412" deviceset="WIREPAD" device="SMD5-2,5" package3d_urn="urn:adsk.eagle:package:30845/1"/>
<part name="PAD10" library="wirepad" library_urn="urn:adsk.eagle:library:412" deviceset="WIREPAD" device="SMD5-2,5" package3d_urn="urn:adsk.eagle:package:30845/1"/>
<part name="PAD11" library="wirepad" library_urn="urn:adsk.eagle:library:412" deviceset="WIREPAD" device="SMD5-2,5" package3d_urn="urn:adsk.eagle:package:30845/1"/>
<part name="PAD12" library="wirepad" library_urn="urn:adsk.eagle:library:412" deviceset="WIREPAD" device="SMD5-2,5" package3d_urn="urn:adsk.eagle:package:30845/1"/>
<part name="PAD13" library="wirepad" library_urn="urn:adsk.eagle:library:412" deviceset="WIREPAD" device="SMD5-2,5" package3d_urn="urn:adsk.eagle:package:30845/1"/>
<part name="PAD14" library="wirepad" library_urn="urn:adsk.eagle:library:412" deviceset="WIREPAD" device="SMD5-2,5" package3d_urn="urn:adsk.eagle:package:30845/1"/>
<part name="PAD15" library="wirepad" library_urn="urn:adsk.eagle:library:412" deviceset="WIREPAD" device="SMD5-2,5" package3d_urn="urn:adsk.eagle:package:30845/1"/>
<part name="PAD16" library="wirepad" library_urn="urn:adsk.eagle:library:412" deviceset="WIREPAD" device="SMD5-2,5" package3d_urn="urn:adsk.eagle:package:30845/1"/>
</parts>
<sheets>
<sheet>
<plain>
</plain>
<instances>
<instance part="PAD1" gate="G$1" x="142.24" y="63.5" rot="R180"/>
<instance part="PAD2" gate="G$1" x="142.24" y="58.42" rot="R180"/>
<instance part="PAD3" gate="G$1" x="142.24" y="53.34" rot="R180"/>
<instance part="PAD4" gate="G$1" x="142.24" y="48.26" rot="R180"/>
<instance part="PAD5" gate="G$1" x="142.24" y="43.18" rot="R180"/>
<instance part="PAD6" gate="G$1" x="142.24" y="38.1" rot="R180"/>
<instance part="PAD7" gate="G$1" x="142.24" y="33.02" rot="R180"/>
<instance part="PAD8" gate="G$1" x="142.24" y="27.94" rot="R180"/>
<instance part="PAD9" gate="G$1" x="111.76" y="63.5"/>
<instance part="PAD10" gate="G$1" x="111.76" y="58.42"/>
<instance part="PAD11" gate="G$1" x="111.76" y="53.34"/>
<instance part="PAD12" gate="G$1" x="111.76" y="48.26"/>
<instance part="PAD13" gate="G$1" x="111.76" y="43.18"/>
<instance part="PAD14" gate="G$1" x="111.76" y="38.1"/>
<instance part="PAD15" gate="G$1" x="111.76" y="33.02"/>
<instance part="PAD16" gate="G$1" x="111.76" y="27.94"/>
</instances>
<busses>
</busses>
<nets>
<net name="N$1" class="0">
<segment>
<pinref part="PAD9" gate="G$1" pin="P"/>
<pinref part="PAD1" gate="G$1" pin="P"/>
<wire x1="114.3" y1="63.5" x2="139.7" y2="63.5" width="0.1524" layer="91"/>
</segment>
</net>
<net name="N$2" class="0">
<segment>
<pinref part="PAD10" gate="G$1" pin="P"/>
<pinref part="PAD2" gate="G$1" pin="P"/>
<wire x1="114.3" y1="58.42" x2="139.7" y2="58.42" width="0.1524" layer="91"/>
</segment>
</net>
<net name="N$3" class="0">
<segment>
<pinref part="PAD11" gate="G$1" pin="P"/>
<pinref part="PAD3" gate="G$1" pin="P"/>
<wire x1="114.3" y1="53.34" x2="139.7" y2="53.34" width="0.1524" layer="91"/>
</segment>
</net>
<net name="N$4" class="0">
<segment>
<pinref part="PAD12" gate="G$1" pin="P"/>
<pinref part="PAD4" gate="G$1" pin="P"/>
<wire x1="114.3" y1="48.26" x2="139.7" y2="48.26" width="0.1524" layer="91"/>
</segment>
</net>
<net name="N$5" class="0">
<segment>
<pinref part="PAD13" gate="G$1" pin="P"/>
<pinref part="PAD5" gate="G$1" pin="P"/>
<wire x1="114.3" y1="43.18" x2="139.7" y2="43.18" width="0.1524" layer="91"/>
</segment>
</net>
<net name="N$6" class="0">
<segment>
<pinref part="PAD14" gate="G$1" pin="P"/>
<pinref part="PAD6" gate="G$1" pin="P"/>
<wire x1="114.3" y1="38.1" x2="139.7" y2="38.1" width="0.1524" layer="91"/>
</segment>
</net>
<net name="N$7" class="0">
<segment>
<pinref part="PAD15" gate="G$1" pin="P"/>
<pinref part="PAD7" gate="G$1" pin="P"/>
<wire x1="114.3" y1="33.02" x2="139.7" y2="33.02" width="0.1524" layer="91"/>
</segment>
</net>
<net name="N$8" class="0">
<segment>
<pinref part="PAD16" gate="G$1" pin="P"/>
<pinref part="PAD8" gate="G$1" pin="P"/>
<wire x1="114.3" y1="27.94" x2="139.7" y2="27.94" width="0.1524" layer="91"/>
</segment>
</net>
</nets>
</sheet>
</sheets>
</schematic>
</drawing>
<compatibility>
<note version="8.2" severity="warning">
Since Version 8.2, EAGLE supports online libraries. The ids
of those online libraries will not be understood (or retained)
with this version.
</note>
<note version="8.3" severity="warning">
Since Version 8.3, EAGLE supports URNs for individual library
assets (packages, symbols, and devices). The URNs of those assets
will not be understood (or retained) with this version.
</note>
<note version="8.3" severity="warning">
Since Version 8.3, EAGLE supports the association of 3D packages
with devices in libraries, schematics, and board files. Those 3D
packages will not be understood (or retained) with this version.
</note>
</compatibility>
</eagle>
