<?xml version="1.0" encoding="utf-8"?>
<!DOCTYPE eagle SYSTEM "eagle.dtd">
<eagle version="8.3.1">
<drawing>
<settings>
<setting alwaysvectorfont="no"/>
<setting verticaltext="up"/>
</settings>
<grid distance="2.54" unitdist="mm" unit="mm" style="lines" multiple="1" display="yes" altdistance="2.54" altunitdist="mm" altunit="mm"/>
<layers>
<layer number="1" name="Top" color="4" fill="1" visible="no" active="no"/>
<layer number="16" name="Bottom" color="1" fill="1" visible="no" active="no"/>
<layer number="17" name="Pads" color="2" fill="1" visible="no" active="no"/>
<layer number="18" name="Vias" color="2" fill="1" visible="no" active="no"/>
<layer number="19" name="Unrouted" color="6" fill="1" visible="no" active="no"/>
<layer number="20" name="Dimension" color="15" fill="1" visible="no" active="no"/>
<layer number="21" name="tPlace" color="7" fill="1" visible="no" active="no"/>
<layer number="22" name="bPlace" color="7" fill="1" visible="no" active="no"/>
<layer number="23" name="tOrigins" color="15" fill="1" visible="no" active="no"/>
<layer number="24" name="bOrigins" color="15" fill="1" visible="no" active="no"/>
<layer number="25" name="tNames" color="7" fill="1" visible="no" active="no"/>
<layer number="26" name="bNames" color="7" fill="1" visible="no" active="no"/>
<layer number="27" name="tValues" color="7" fill="1" visible="no" active="no"/>
<layer number="28" name="bValues" color="7" fill="1" visible="no" active="no"/>
<layer number="29" name="tStop" color="7" fill="3" visible="no" active="no"/>
<layer number="30" name="bStop" color="7" fill="6" visible="no" active="no"/>
<layer number="31" name="tCream" color="7" fill="4" visible="no" active="no"/>
<layer number="32" name="bCream" color="7" fill="5" visible="no" active="no"/>
<layer number="33" name="tFinish" color="6" fill="3" visible="no" active="no"/>
<layer number="34" name="bFinish" color="6" fill="6" visible="no" active="no"/>
<layer number="35" name="tGlue" color="7" fill="4" visible="no" active="no"/>
<layer number="36" name="bGlue" color="7" fill="5" visible="no" active="no"/>
<layer number="37" name="tTest" color="7" fill="1" visible="no" active="no"/>
<layer number="38" name="bTest" color="7" fill="1" visible="no" active="no"/>
<layer number="39" name="tKeepout" color="4" fill="11" visible="no" active="no"/>
<layer number="40" name="bKeepout" color="1" fill="11" visible="no" active="no"/>
<layer number="41" name="tRestrict" color="4" fill="10" visible="no" active="no"/>
<layer number="42" name="bRestrict" color="1" fill="10" visible="no" active="no"/>
<layer number="43" name="vRestrict" color="2" fill="10" visible="no" active="no"/>
<layer number="44" name="Drills" color="7" fill="1" visible="no" active="no"/>
<layer number="45" name="Holes" color="7" fill="1" visible="no" active="no"/>
<layer number="46" name="Milling" color="3" fill="1" visible="no" active="no"/>
<layer number="47" name="Measures" color="7" fill="1" visible="no" active="no"/>
<layer number="48" name="Document" color="7" fill="1" visible="no" active="no"/>
<layer number="49" name="Reference" color="7" fill="1" visible="no" active="no"/>
<layer number="51" name="tDocu" color="7" fill="1" visible="no" active="no"/>
<layer number="52" name="bDocu" color="7" fill="1" visible="no" active="no"/>
<layer number="90" name="Modules" color="5" fill="1" visible="yes" active="yes"/>
<layer number="91" name="Nets" color="2" fill="1" visible="yes" active="yes"/>
<layer number="92" name="Busses" color="1" fill="1" visible="yes" active="yes"/>
<layer number="93" name="Pins" color="2" fill="1" visible="no" active="yes"/>
<layer number="94" name="Symbols" color="4" fill="1" visible="yes" active="yes"/>
<layer number="95" name="Names" color="7" fill="1" visible="yes" active="yes"/>
<layer number="96" name="Values" color="7" fill="1" visible="yes" active="yes"/>
<layer number="97" name="Info" color="7" fill="1" visible="yes" active="yes"/>
<layer number="98" name="Guide" color="6" fill="1" visible="yes" active="yes"/>
</layers>
<schematic xreflabel="%F%N/%S.%C%R" xrefpart="/%S.%C%R">
<libraries>
<library name="pinhead" urn="urn:adsk.eagle:library:325">
<description>&lt;b&gt;Pin Header Connectors&lt;/b&gt;&lt;p&gt;
&lt;author&gt;Created by librarian@cadsoft.de&lt;/author&gt;</description>
<packages>
<package name="1X06" urn="urn:adsk.eagle:footprint:22361/1" library_version="2">
<description>&lt;b&gt;PIN HEADER&lt;/b&gt;</description>
<wire x1="0.635" y1="1.27" x2="1.905" y2="1.27" width="0.1524" layer="21"/>
<wire x1="1.905" y1="1.27" x2="2.54" y2="0.635" width="0.1524" layer="21"/>
<wire x1="2.54" y1="0.635" x2="2.54" y2="-0.635" width="0.1524" layer="21"/>
<wire x1="2.54" y1="-0.635" x2="1.905" y2="-1.27" width="0.1524" layer="21"/>
<wire x1="2.54" y1="0.635" x2="3.175" y2="1.27" width="0.1524" layer="21"/>
<wire x1="3.175" y1="1.27" x2="4.445" y2="1.27" width="0.1524" layer="21"/>
<wire x1="4.445" y1="1.27" x2="5.08" y2="0.635" width="0.1524" layer="21"/>
<wire x1="5.08" y1="0.635" x2="5.08" y2="-0.635" width="0.1524" layer="21"/>
<wire x1="5.08" y1="-0.635" x2="4.445" y2="-1.27" width="0.1524" layer="21"/>
<wire x1="4.445" y1="-1.27" x2="3.175" y2="-1.27" width="0.1524" layer="21"/>
<wire x1="3.175" y1="-1.27" x2="2.54" y2="-0.635" width="0.1524" layer="21"/>
<wire x1="-2.54" y1="0.635" x2="-1.905" y2="1.27" width="0.1524" layer="21"/>
<wire x1="-1.905" y1="1.27" x2="-0.635" y2="1.27" width="0.1524" layer="21"/>
<wire x1="-0.635" y1="1.27" x2="0" y2="0.635" width="0.1524" layer="21"/>
<wire x1="0" y1="0.635" x2="0" y2="-0.635" width="0.1524" layer="21"/>
<wire x1="0" y1="-0.635" x2="-0.635" y2="-1.27" width="0.1524" layer="21"/>
<wire x1="-0.635" y1="-1.27" x2="-1.905" y2="-1.27" width="0.1524" layer="21"/>
<wire x1="-1.905" y1="-1.27" x2="-2.54" y2="-0.635" width="0.1524" layer="21"/>
<wire x1="0.635" y1="1.27" x2="0" y2="0.635" width="0.1524" layer="21"/>
<wire x1="0" y1="-0.635" x2="0.635" y2="-1.27" width="0.1524" layer="21"/>
<wire x1="1.905" y1="-1.27" x2="0.635" y2="-1.27" width="0.1524" layer="21"/>
<wire x1="-6.985" y1="1.27" x2="-5.715" y2="1.27" width="0.1524" layer="21"/>
<wire x1="-5.715" y1="1.27" x2="-5.08" y2="0.635" width="0.1524" layer="21"/>
<wire x1="-5.08" y1="0.635" x2="-5.08" y2="-0.635" width="0.1524" layer="21"/>
<wire x1="-5.08" y1="-0.635" x2="-5.715" y2="-1.27" width="0.1524" layer="21"/>
<wire x1="-5.08" y1="0.635" x2="-4.445" y2="1.27" width="0.1524" layer="21"/>
<wire x1="-4.445" y1="1.27" x2="-3.175" y2="1.27" width="0.1524" layer="21"/>
<wire x1="-3.175" y1="1.27" x2="-2.54" y2="0.635" width="0.1524" layer="21"/>
<wire x1="-2.54" y1="0.635" x2="-2.54" y2="-0.635" width="0.1524" layer="21"/>
<wire x1="-2.54" y1="-0.635" x2="-3.175" y2="-1.27" width="0.1524" layer="21"/>
<wire x1="-3.175" y1="-1.27" x2="-4.445" y2="-1.27" width="0.1524" layer="21"/>
<wire x1="-4.445" y1="-1.27" x2="-5.08" y2="-0.635" width="0.1524" layer="21"/>
<wire x1="-7.62" y1="0.635" x2="-7.62" y2="-0.635" width="0.1524" layer="21"/>
<wire x1="-6.985" y1="1.27" x2="-7.62" y2="0.635" width="0.1524" layer="21"/>
<wire x1="-7.62" y1="-0.635" x2="-6.985" y2="-1.27" width="0.1524" layer="21"/>
<wire x1="-5.715" y1="-1.27" x2="-6.985" y2="-1.27" width="0.1524" layer="21"/>
<wire x1="5.715" y1="1.27" x2="6.985" y2="1.27" width="0.1524" layer="21"/>
<wire x1="6.985" y1="1.27" x2="7.62" y2="0.635" width="0.1524" layer="21"/>
<wire x1="7.62" y1="0.635" x2="7.62" y2="-0.635" width="0.1524" layer="21"/>
<wire x1="7.62" y1="-0.635" x2="6.985" y2="-1.27" width="0.1524" layer="21"/>
<wire x1="5.715" y1="1.27" x2="5.08" y2="0.635" width="0.1524" layer="21"/>
<wire x1="5.08" y1="-0.635" x2="5.715" y2="-1.27" width="0.1524" layer="21"/>
<wire x1="6.985" y1="-1.27" x2="5.715" y2="-1.27" width="0.1524" layer="21"/>
<pad name="1" x="-6.35" y="0" drill="1.016" shape="long" rot="R90"/>
<pad name="2" x="-3.81" y="0" drill="1.016" shape="long" rot="R90"/>
<pad name="3" x="-1.27" y="0" drill="1.016" shape="long" rot="R90"/>
<pad name="4" x="1.27" y="0" drill="1.016" shape="long" rot="R90"/>
<pad name="5" x="3.81" y="0" drill="1.016" shape="long" rot="R90"/>
<pad name="6" x="6.35" y="0" drill="1.016" shape="long" rot="R90"/>
<text x="-7.6962" y="1.8288" size="1.27" layer="25" ratio="10">&gt;NAME</text>
<text x="-7.62" y="-3.175" size="1.27" layer="27">&gt;VALUE</text>
<rectangle x1="3.556" y1="-0.254" x2="4.064" y2="0.254" layer="51"/>
<rectangle x1="1.016" y1="-0.254" x2="1.524" y2="0.254" layer="51"/>
<rectangle x1="-1.524" y1="-0.254" x2="-1.016" y2="0.254" layer="51"/>
<rectangle x1="-4.064" y1="-0.254" x2="-3.556" y2="0.254" layer="51"/>
<rectangle x1="-6.604" y1="-0.254" x2="-6.096" y2="0.254" layer="51"/>
<rectangle x1="6.096" y1="-0.254" x2="6.604" y2="0.254" layer="51"/>
</package>
<package name="1X06/90" urn="urn:adsk.eagle:footprint:22362/1" library_version="2">
<description>&lt;b&gt;PIN HEADER&lt;/b&gt;</description>
<wire x1="-7.62" y1="-1.905" x2="-5.08" y2="-1.905" width="0.1524" layer="21"/>
<wire x1="-5.08" y1="-1.905" x2="-5.08" y2="0.635" width="0.1524" layer="21"/>
<wire x1="-5.08" y1="0.635" x2="-7.62" y2="0.635" width="0.1524" layer="21"/>
<wire x1="-7.62" y1="0.635" x2="-7.62" y2="-1.905" width="0.1524" layer="21"/>
<wire x1="-6.35" y1="6.985" x2="-6.35" y2="1.27" width="0.762" layer="21"/>
<wire x1="-5.08" y1="-1.905" x2="-2.54" y2="-1.905" width="0.1524" layer="21"/>
<wire x1="-2.54" y1="-1.905" x2="-2.54" y2="0.635" width="0.1524" layer="21"/>
<wire x1="-2.54" y1="0.635" x2="-5.08" y2="0.635" width="0.1524" layer="21"/>
<wire x1="-3.81" y1="6.985" x2="-3.81" y2="1.27" width="0.762" layer="21"/>
<wire x1="-2.54" y1="-1.905" x2="0" y2="-1.905" width="0.1524" layer="21"/>
<wire x1="0" y1="-1.905" x2="0" y2="0.635" width="0.1524" layer="21"/>
<wire x1="0" y1="0.635" x2="-2.54" y2="0.635" width="0.1524" layer="21"/>
<wire x1="-1.27" y1="6.985" x2="-1.27" y2="1.27" width="0.762" layer="21"/>
<wire x1="0" y1="-1.905" x2="2.54" y2="-1.905" width="0.1524" layer="21"/>
<wire x1="2.54" y1="-1.905" x2="2.54" y2="0.635" width="0.1524" layer="21"/>
<wire x1="2.54" y1="0.635" x2="0" y2="0.635" width="0.1524" layer="21"/>
<wire x1="1.27" y1="6.985" x2="1.27" y2="1.27" width="0.762" layer="21"/>
<wire x1="2.54" y1="-1.905" x2="5.08" y2="-1.905" width="0.1524" layer="21"/>
<wire x1="5.08" y1="-1.905" x2="5.08" y2="0.635" width="0.1524" layer="21"/>
<wire x1="5.08" y1="0.635" x2="2.54" y2="0.635" width="0.1524" layer="21"/>
<wire x1="3.81" y1="6.985" x2="3.81" y2="1.27" width="0.762" layer="21"/>
<wire x1="5.08" y1="-1.905" x2="7.62" y2="-1.905" width="0.1524" layer="21"/>
<wire x1="7.62" y1="-1.905" x2="7.62" y2="0.635" width="0.1524" layer="21"/>
<wire x1="7.62" y1="0.635" x2="5.08" y2="0.635" width="0.1524" layer="21"/>
<wire x1="6.35" y1="6.985" x2="6.35" y2="1.27" width="0.762" layer="21"/>
<pad name="1" x="-6.35" y="-3.81" drill="1.016" shape="long" rot="R90"/>
<pad name="2" x="-3.81" y="-3.81" drill="1.016" shape="long" rot="R90"/>
<pad name="3" x="-1.27" y="-3.81" drill="1.016" shape="long" rot="R90"/>
<pad name="4" x="1.27" y="-3.81" drill="1.016" shape="long" rot="R90"/>
<pad name="5" x="3.81" y="-3.81" drill="1.016" shape="long" rot="R90"/>
<pad name="6" x="6.35" y="-3.81" drill="1.016" shape="long" rot="R90"/>
<text x="-8.255" y="-3.81" size="1.27" layer="25" ratio="10" rot="R90">&gt;NAME</text>
<text x="9.525" y="-3.81" size="1.27" layer="27" rot="R90">&gt;VALUE</text>
<rectangle x1="-6.731" y1="0.635" x2="-5.969" y2="1.143" layer="21"/>
<rectangle x1="-4.191" y1="0.635" x2="-3.429" y2="1.143" layer="21"/>
<rectangle x1="-1.651" y1="0.635" x2="-0.889" y2="1.143" layer="21"/>
<rectangle x1="0.889" y1="0.635" x2="1.651" y2="1.143" layer="21"/>
<rectangle x1="3.429" y1="0.635" x2="4.191" y2="1.143" layer="21"/>
<rectangle x1="5.969" y1="0.635" x2="6.731" y2="1.143" layer="21"/>
<rectangle x1="-6.731" y1="-2.921" x2="-5.969" y2="-1.905" layer="21"/>
<rectangle x1="-4.191" y1="-2.921" x2="-3.429" y2="-1.905" layer="21"/>
<rectangle x1="-1.651" y1="-2.921" x2="-0.889" y2="-1.905" layer="21"/>
<rectangle x1="0.889" y1="-2.921" x2="1.651" y2="-1.905" layer="21"/>
<rectangle x1="3.429" y1="-2.921" x2="4.191" y2="-1.905" layer="21"/>
<rectangle x1="5.969" y1="-2.921" x2="6.731" y2="-1.905" layer="21"/>
</package>
</packages>
<packages3d>
<package3d name="1X06" urn="urn:adsk.eagle:package:22472/2" type="model" library_version="2">
<description>PIN HEADER</description>
</package3d>
<package3d name="1X06/90" urn="urn:adsk.eagle:package:22475/1" type="box" library_version="2">
<description>PIN HEADER</description>
</package3d>
</packages3d>
<symbols>
<symbol name="PINHD6" urn="urn:adsk.eagle:symbol:22360/1" library_version="2">
<wire x1="-6.35" y1="-7.62" x2="1.27" y2="-7.62" width="0.4064" layer="94"/>
<wire x1="1.27" y1="-7.62" x2="1.27" y2="10.16" width="0.4064" layer="94"/>
<wire x1="1.27" y1="10.16" x2="-6.35" y2="10.16" width="0.4064" layer="94"/>
<wire x1="-6.35" y1="10.16" x2="-6.35" y2="-7.62" width="0.4064" layer="94"/>
<text x="-6.35" y="10.795" size="1.778" layer="95">&gt;NAME</text>
<text x="-6.35" y="-10.16" size="1.778" layer="96">&gt;VALUE</text>
<pin name="1" x="-2.54" y="7.62" visible="pad" length="short" direction="pas" function="dot"/>
<pin name="2" x="-2.54" y="5.08" visible="pad" length="short" direction="pas" function="dot"/>
<pin name="3" x="-2.54" y="2.54" visible="pad" length="short" direction="pas" function="dot"/>
<pin name="4" x="-2.54" y="0" visible="pad" length="short" direction="pas" function="dot"/>
<pin name="5" x="-2.54" y="-2.54" visible="pad" length="short" direction="pas" function="dot"/>
<pin name="6" x="-2.54" y="-5.08" visible="pad" length="short" direction="pas" function="dot"/>
</symbol>
</symbols>
<devicesets>
<deviceset name="PINHD-1X6" urn="urn:adsk.eagle:component:22533/2" prefix="JP" uservalue="yes" library_version="2">
<description>&lt;b&gt;PIN HEADER&lt;/b&gt;</description>
<gates>
<gate name="A" symbol="PINHD6" x="0" y="-2.54"/>
</gates>
<devices>
<device name="" package="1X06">
<connects>
<connect gate="A" pin="1" pad="1"/>
<connect gate="A" pin="2" pad="2"/>
<connect gate="A" pin="3" pad="3"/>
<connect gate="A" pin="4" pad="4"/>
<connect gate="A" pin="5" pad="5"/>
<connect gate="A" pin="6" pad="6"/>
</connects>
<package3dinstances>
<package3dinstance package3d_urn="urn:adsk.eagle:package:22472/2"/>
</package3dinstances>
<technologies>
<technology name=""/>
</technologies>
</device>
<device name="/90" package="1X06/90">
<connects>
<connect gate="A" pin="1" pad="1"/>
<connect gate="A" pin="2" pad="2"/>
<connect gate="A" pin="3" pad="3"/>
<connect gate="A" pin="4" pad="4"/>
<connect gate="A" pin="5" pad="5"/>
<connect gate="A" pin="6" pad="6"/>
</connects>
<package3dinstances>
<package3dinstance package3d_urn="urn:adsk.eagle:package:22475/1"/>
</package3dinstances>
<technologies>
<technology name=""/>
</technologies>
</device>
</devices>
</deviceset>
</devicesets>
</library>
<library name="con-ptr500" urn="urn:adsk.eagle:library:181">
<description>&lt;b&gt;PTR Connectors&lt;/b&gt;&lt;p&gt;
Aug. 2004 / PTR Meßtechnik:&lt;br&gt;
Die Bezeichnung der Serie AK505 wurde geändert.&lt;br&gt;
Es handelt sich hierbei um AK500 in horizontaler Ausführung.&lt;p&gt;
&lt;TABLE BORDER=0 CELLSPACING=1 CELLPADDING=2&gt;
  &lt;TR&gt;
    &lt;TD ALIGN=LEFT&gt;
      &lt;FONT SIZE=4 FACE=ARIAL&gt;&lt;B&gt;Alte Bezeichnung&lt;/B&gt;&lt;/FONT&gt;
    &lt;/TD&gt;
    &lt;TD ALIGN=LEFT&gt;
      &lt;FONT SIZE=4 FACE=ARIAL&gt;&lt;B&gt;Neue Bezeichnung&lt;/B&gt;&lt;/FONT&gt;
    &lt;/TD&gt;
  &lt;/TR&gt;
  &lt;TR&gt;
    &lt;TD ALIGN=LEFT&gt;
      &lt;B&gt;
      &lt;FONT SIZE=3 FACE=ARIAL color="#FF0000"&gt;AK505/2,grau&lt;/FONT&gt;
      &lt;/B&gt;
    &lt;/TD&gt;
    &lt;TD ALIGN=LEFT&gt;
      &lt;B&gt;
      &lt;FONT SIZE=3 FACE=ARIAL color="#0000FF"&gt;AK500/2-5.0-H-GRAU&lt;/FONT&gt;
      &lt;/B&gt;
    &lt;/TD&gt;
  &lt;/TR&gt;
  &lt;TR&gt;
    &lt;TD ALIGN=LEFT&gt;
      &lt;B&gt;
      &lt;FONT SIZE=3 FACE=ARIAL color="#FF0000"&gt;AK505/2DS,grau&lt;/FONT&gt;
      &lt;/B&gt;
    &lt;/TD&gt;
    &lt;TD ALIGN=LEFT&gt;
      &lt;B&gt;
      &lt;FONT SIZE=3 FACE=ARIAL color="#0000FF"&gt;AK500/2DS-5.0-H-GRAU&lt;/FONT&gt;
      &lt;/B&gt;
    &lt;/TD&gt;
  &lt;/TR&gt;
  &lt;TR&gt;
    &lt;TD ALIGN=LEFT&gt;
      &lt;B&gt;
      &lt;FONT SIZE=3 FACE=ARIAL color="#FF0000"&gt;AKZ505/2,grau&lt;/FONT&gt;
      &lt;/B&gt;
    &lt;/TD&gt;
    &lt;TD ALIGN=LEFT&gt;
      &lt;B&gt;
      &lt;FONT SIZE=3 FACE=ARIAL color="#0000FF"&gt;AKZ500/2-5.08-H-GRAU&lt;/FONT&gt;
      &lt;/B&gt;
    &lt;/TD&gt;
  &lt;/TABLE&gt;

&lt;author&gt;Created by librarian@cadsoft.de&lt;/author&gt;</description>
<packages>
<package name="AK500/3-H" urn="urn:adsk.eagle:footprint:9866/1" library_version="1">
<description>&lt;b&gt;CONNECTOR&lt;/b&gt;&lt;p&gt;
Aug. 2004 / PTR Meßtechnik:&lt;br&gt;
Die Bezeichnung der Serie AK505 wurde geändert.&lt;br&gt;
Es handelt sich hierbei um AK500 in horizontaler Ausführung.</description>
<wire x1="-7.5946" y1="-7.239" x2="-7.5946" y2="-3.81" width="0.1524" layer="21"/>
<wire x1="7.5946" y1="2.794" x2="-7.5946" y2="2.794" width="0.1524" layer="21"/>
<wire x1="-7.5946" y1="-7.239" x2="-6.8326" y2="-7.239" width="0.1524" layer="21"/>
<wire x1="7.5946" y1="2.794" x2="7.5946" y2="-3.429" width="0.1524" layer="21"/>
<wire x1="-7.5946" y1="-3.429" x2="7.5946" y2="-3.429" width="0.1524" layer="21"/>
<wire x1="-7.5946" y1="-3.429" x2="-7.5946" y2="2.794" width="0.1524" layer="21"/>
<wire x1="7.5946" y1="-3.429" x2="7.5946" y2="-3.81" width="0.1524" layer="21"/>
<wire x1="7.9756" y1="2.794" x2="7.9756" y2="-3.429" width="0.1524" layer="21"/>
<wire x1="7.9756" y1="-3.429" x2="7.5946" y2="-3.429" width="0.1524" layer="21"/>
<wire x1="7.9756" y1="2.794" x2="7.5946" y2="2.794" width="0.1524" layer="21"/>
<wire x1="-2.9718" y1="2.159" x2="-2.9718" y2="-2.794" width="0.1524" layer="21"/>
<wire x1="-7.0358" y1="-2.794" x2="-2.9718" y2="-2.794" width="0.1524" layer="21"/>
<wire x1="-7.0358" y1="-2.794" x2="-7.0358" y2="2.159" width="0.1524" layer="21"/>
<wire x1="-2.9718" y1="2.159" x2="-7.0358" y2="2.159" width="0.1524" layer="21"/>
<wire x1="-2.032" y1="2.159" x2="-2.032" y2="-2.794" width="0.1524" layer="21"/>
<wire x1="-2.032" y1="-2.794" x2="2.032" y2="-2.794" width="0.1524" layer="21"/>
<wire x1="2.032" y1="-2.794" x2="2.032" y2="2.159" width="0.1524" layer="21"/>
<wire x1="2.032" y1="2.159" x2="-2.032" y2="2.159" width="0.1524" layer="21"/>
<wire x1="2.286" y1="-3.048" x2="-2.286" y2="-3.048" width="0.0508" layer="21"/>
<wire x1="2.286" y1="-3.048" x2="2.286" y2="2.413" width="0.0508" layer="21"/>
<wire x1="-2.286" y1="2.413" x2="2.286" y2="2.413" width="0.0508" layer="21"/>
<wire x1="-2.286" y1="2.413" x2="-2.286" y2="-3.048" width="0.0508" layer="21"/>
<wire x1="-2.7178" y1="2.413" x2="-2.7178" y2="-3.048" width="0.0508" layer="21"/>
<wire x1="-7.2898" y1="2.413" x2="-2.7178" y2="2.413" width="0.0508" layer="21"/>
<wire x1="-7.2898" y1="2.413" x2="-7.2898" y2="-3.048" width="0.0508" layer="21"/>
<wire x1="-2.7178" y1="-3.048" x2="-7.2898" y2="-3.048" width="0.0508" layer="21"/>
<wire x1="-7.0358" y1="0" x2="-2.9718" y2="0" width="0.1524" layer="21" curve="-180"/>
<wire x1="-7.0358" y1="-2.413" x2="-6.7818" y2="-2.667" width="0.1524" layer="21" curve="90"/>
<wire x1="-3.2258" y1="-2.667" x2="-2.9718" y2="-2.413" width="0.1524" layer="21" curve="90"/>
<wire x1="-3.2258" y1="-2.667" x2="-6.7818" y2="-2.667" width="0.1524" layer="21"/>
<wire x1="-3.8608" y1="-2.413" x2="-3.6068" y2="-2.667" width="0.1524" layer="21" curve="90"/>
<wire x1="-6.4008" y1="-2.667" x2="-6.1468" y2="-2.413" width="0.1524" layer="21" curve="90"/>
<wire x1="-6.1468" y1="-0.127" x2="-6.1468" y2="-0.762" width="0.1524" layer="51"/>
<wire x1="-6.1468" y1="-0.127" x2="-3.8608" y2="-0.127" width="0.1524" layer="51"/>
<wire x1="-3.8608" y1="-0.127" x2="-3.8608" y2="-0.762" width="0.1524" layer="51"/>
<wire x1="-6.1468" y1="-0.762" x2="-3.8608" y2="-0.762" width="0.1524" layer="51"/>
<wire x1="-6.1468" y1="-0.762" x2="-6.1468" y2="-2.413" width="0.1524" layer="21"/>
<wire x1="-3.8608" y1="-0.762" x2="-3.8608" y2="-2.413" width="0.1524" layer="21"/>
<wire x1="7.5946" y1="-3.81" x2="-7.5946" y2="-3.81" width="0.0508" layer="21"/>
<wire x1="-7.5946" y1="-3.81" x2="-7.5946" y2="-3.429" width="0.1524" layer="21"/>
<wire x1="7.5946" y1="-3.81" x2="7.5946" y2="-7.239" width="0.1524" layer="21"/>
<wire x1="-2.032" y1="0" x2="2.032" y2="0" width="0.1524" layer="21" curve="-180"/>
<wire x1="-1.143" y1="-0.127" x2="1.143" y2="-0.127" width="0.1524" layer="51"/>
<wire x1="-1.143" y1="-0.127" x2="-1.143" y2="-0.762" width="0.1524" layer="51"/>
<wire x1="-1.143" y1="-0.762" x2="1.143" y2="-0.762" width="0.1524" layer="51"/>
<wire x1="-1.143" y1="-0.762" x2="-1.143" y2="-2.413" width="0.1524" layer="21"/>
<wire x1="1.143" y1="-0.762" x2="1.143" y2="-2.413" width="0.1524" layer="21"/>
<wire x1="1.143" y1="-0.127" x2="1.143" y2="-0.762" width="0.1524" layer="51"/>
<wire x1="-1.397" y1="-2.667" x2="-1.143" y2="-2.413" width="0.1524" layer="21" curve="90"/>
<wire x1="1.143" y1="-2.413" x2="1.397" y2="-2.667" width="0.1524" layer="21" curve="90"/>
<wire x1="1.778" y1="-2.667" x2="-1.778" y2="-2.667" width="0.1524" layer="21"/>
<wire x1="1.778" y1="-2.667" x2="2.032" y2="-2.413" width="0.1524" layer="21" curve="90"/>
<wire x1="-2.032" y1="-2.413" x2="-1.778" y2="-2.667" width="0.1524" layer="21" curve="90"/>
<wire x1="-3.2766" y1="-7.366" x2="-3.2766" y2="-7.239" width="0.1524" layer="21"/>
<wire x1="-3.2766" y1="-7.239" x2="-1.7526" y2="-7.239" width="0.1524" layer="21"/>
<wire x1="-6.8326" y1="-7.366" x2="-6.8326" y2="-7.239" width="0.1524" layer="21"/>
<wire x1="-6.8326" y1="-7.239" x2="-5.3086" y2="-7.239" width="0.1524" layer="21"/>
<wire x1="-6.8326" y1="-7.366" x2="-5.3086" y2="-7.366" width="0.1524" layer="21"/>
<wire x1="-5.3086" y1="-7.239" x2="-5.3086" y2="-7.366" width="0.1524" layer="21"/>
<wire x1="-5.3086" y1="-7.239" x2="-4.8006" y2="-7.239" width="0.1524" layer="21"/>
<wire x1="-4.8006" y1="-7.239" x2="-3.2766" y2="-7.239" width="0.1524" layer="21"/>
<wire x1="-4.8006" y1="-7.366" x2="-4.8006" y2="-7.239" width="0.1524" layer="21"/>
<wire x1="-4.8006" y1="-7.366" x2="-3.2766" y2="-7.366" width="0.1524" layer="21"/>
<wire x1="-0.2286" y1="-7.239" x2="-0.2286" y2="-7.366" width="0.1524" layer="21"/>
<wire x1="-0.2286" y1="-7.239" x2="0.2794" y2="-7.239" width="0.1524" layer="21"/>
<wire x1="-1.7526" y1="-7.366" x2="-0.2286" y2="-7.366" width="0.1524" layer="21"/>
<wire x1="0.2794" y1="-7.366" x2="0.2794" y2="-7.239" width="0.1524" layer="21"/>
<wire x1="0.2794" y1="-7.239" x2="1.8034" y2="-7.239" width="0.1524" layer="21"/>
<wire x1="0.2794" y1="-7.366" x2="1.8034" y2="-7.366" width="0.1524" layer="21"/>
<wire x1="1.8034" y1="-7.366" x2="1.8034" y2="-7.239" width="0.1524" layer="21"/>
<wire x1="-1.7526" y1="-7.366" x2="-1.7526" y2="-7.239" width="0.1524" layer="21"/>
<wire x1="-1.7526" y1="-7.239" x2="-0.2286" y2="-7.239" width="0.1524" layer="21"/>
<wire x1="7.0358" y1="2.159" x2="7.0358" y2="-2.794" width="0.1524" layer="21"/>
<wire x1="2.9718" y1="-2.794" x2="7.0358" y2="-2.794" width="0.1524" layer="21"/>
<wire x1="2.9718" y1="-2.794" x2="2.9718" y2="2.159" width="0.1524" layer="21"/>
<wire x1="7.0358" y1="2.159" x2="2.9718" y2="2.159" width="0.1524" layer="21"/>
<wire x1="7.2898" y1="2.413" x2="7.2898" y2="-3.048" width="0.0508" layer="21"/>
<wire x1="2.7178" y1="2.413" x2="7.2898" y2="2.413" width="0.0508" layer="21"/>
<wire x1="2.7178" y1="2.413" x2="2.7178" y2="-3.048" width="0.0508" layer="21"/>
<wire x1="7.2898" y1="-3.048" x2="2.7178" y2="-3.048" width="0.0508" layer="21"/>
<wire x1="2.9718" y1="0" x2="7.0358" y2="0" width="0.1524" layer="21" curve="-180"/>
<wire x1="2.9718" y1="-2.413" x2="3.2258" y2="-2.667" width="0.1524" layer="21" curve="90"/>
<wire x1="6.7818" y1="-2.667" x2="7.0358" y2="-2.413" width="0.1524" layer="21" curve="90"/>
<wire x1="6.7818" y1="-2.667" x2="3.2258" y2="-2.667" width="0.1524" layer="21"/>
<wire x1="6.1468" y1="-2.413" x2="6.4008" y2="-2.667" width="0.1524" layer="21" curve="90"/>
<wire x1="3.6068" y1="-2.667" x2="3.8608" y2="-2.413" width="0.1524" layer="21" curve="90"/>
<wire x1="3.8608" y1="-0.127" x2="3.8608" y2="-0.762" width="0.1524" layer="51"/>
<wire x1="3.8608" y1="-0.127" x2="6.1468" y2="-0.127" width="0.1524" layer="51"/>
<wire x1="6.1468" y1="-0.127" x2="6.1468" y2="-0.762" width="0.1524" layer="51"/>
<wire x1="3.8608" y1="-0.762" x2="6.1468" y2="-0.762" width="0.1524" layer="51"/>
<wire x1="3.8608" y1="-0.762" x2="3.8608" y2="-2.413" width="0.1524" layer="21"/>
<wire x1="6.1468" y1="-0.762" x2="6.1468" y2="-2.413" width="0.1524" layer="21"/>
<wire x1="6.731" y1="-7.366" x2="6.731" y2="-7.239" width="0.1524" layer="21"/>
<wire x1="3.175" y1="-7.366" x2="4.699" y2="-7.366" width="0.1524" layer="21"/>
<wire x1="5.207" y1="-7.366" x2="6.731" y2="-7.366" width="0.1524" layer="21"/>
<wire x1="3.175" y1="-7.239" x2="3.175" y2="-7.366" width="0.1524" layer="21"/>
<wire x1="3.175" y1="-7.239" x2="1.8034" y2="-7.239" width="0.1524" layer="21"/>
<wire x1="3.175" y1="-7.239" x2="4.699" y2="-7.239" width="0.1524" layer="21"/>
<wire x1="4.699" y1="-7.239" x2="4.699" y2="-7.366" width="0.1524" layer="21"/>
<wire x1="4.699" y1="-7.239" x2="5.207" y2="-7.239" width="0.1524" layer="21"/>
<wire x1="5.207" y1="-7.239" x2="5.207" y2="-7.366" width="0.1524" layer="21"/>
<wire x1="5.207" y1="-7.239" x2="6.731" y2="-7.239" width="0.1524" layer="21"/>
<wire x1="7.5946" y1="-7.239" x2="6.731" y2="-7.239" width="0.1524" layer="21"/>
<circle x="-5.0038" y="0" radius="1.397" width="0.1524" layer="51"/>
<circle x="0" y="0" radius="1.397" width="0.1524" layer="51"/>
<circle x="5.0038" y="0" radius="1.397" width="0.1524" layer="51"/>
<pad name="1" x="-5.0038" y="0" drill="1.3208" shape="long" rot="R90"/>
<pad name="2" x="0" y="0" drill="1.3208" shape="long" rot="R90"/>
<pad name="3" x="5.0038" y="0" drill="1.3208" shape="long" rot="R90"/>
<text x="-7.5946" y="3.556" size="1.778" layer="25" ratio="10">&gt;NAME</text>
<text x="-7.5946" y="-9.525" size="1.778" layer="27" ratio="10">&gt;VALUE</text>
<text x="-5.6896" y="-5.715" size="1.27" layer="21" ratio="10">1</text>
<text x="-0.6096" y="-5.715" size="1.27" layer="21" ratio="10">2</text>
<text x="4.318" y="-5.715" size="1.27" layer="21" ratio="10">3</text>
<rectangle x1="-6.1468" y1="-1.524" x2="-3.8608" y2="-0.762" layer="51"/>
<rectangle x1="-1.143" y1="-1.524" x2="1.143" y2="-0.762" layer="51"/>
<rectangle x1="-6.1468" y1="-2.667" x2="-3.8608" y2="-1.524" layer="21"/>
<rectangle x1="-1.143" y1="-2.667" x2="1.143" y2="-1.524" layer="21"/>
<rectangle x1="3.8608" y1="-1.524" x2="6.1468" y2="-0.762" layer="51"/>
<rectangle x1="3.8608" y1="-2.667" x2="6.1468" y2="-1.524" layer="21"/>
</package>
</packages>
<packages3d>
<package3d name="AK500/3-H" urn="urn:adsk.eagle:package:9899/1" type="box" library_version="1">
<description>CONNECTOR
Aug. 2004 / PTR Meßtechnik:
Die Bezeichnung der Serie AK505 wurde geändert.
Es handelt sich hierbei um AK500 in horizontaler Ausführung.</description>
</package3d>
</packages3d>
<symbols>
<symbol name="KL" urn="urn:adsk.eagle:symbol:9841/1" library_version="1">
<circle x="1.27" y="0" radius="1.27" width="0.254" layer="94"/>
<text x="-1.27" y="0.889" size="1.778" layer="95" rot="R180">&gt;NAME</text>
<pin name="KL" x="5.08" y="0" visible="off" length="short" direction="pas" rot="R180"/>
</symbol>
<symbol name="KLV" urn="urn:adsk.eagle:symbol:9842/1" library_version="1">
<circle x="1.27" y="0" radius="1.27" width="0.254" layer="94"/>
<text x="-1.27" y="0.889" size="1.778" layer="95" rot="R180">&gt;NAME</text>
<text x="-3.81" y="-3.683" size="1.778" layer="96">&gt;VALUE</text>
<pin name="KL" x="5.08" y="0" visible="off" length="short" direction="pas" rot="R180"/>
</symbol>
</symbols>
<devicesets>
<deviceset name="AK500/3-H" urn="urn:adsk.eagle:component:9930/1" prefix="X" uservalue="yes" library_version="1">
<description>&lt;b&gt;CONNECTOR&lt;/b&gt;&lt;p&gt;
Aug. 2004 / PTR Meßtechnik:&lt;br&gt;
Die Bezeichnung der Serie AK505 wurde geändert.&lt;br&gt;
Es handelt sich hierbei um AK500 in horizontaler Ausführung.</description>
<gates>
<gate name="-1" symbol="KL" x="0" y="10.16" addlevel="always"/>
<gate name="-2" symbol="KL" x="0" y="5.08" addlevel="always"/>
<gate name="-3" symbol="KLV" x="0" y="0" addlevel="always"/>
</gates>
<devices>
<device name="" package="AK500/3-H">
<connects>
<connect gate="-1" pin="KL" pad="1"/>
<connect gate="-2" pin="KL" pad="2"/>
<connect gate="-3" pin="KL" pad="3"/>
</connects>
<package3dinstances>
<package3dinstance package3d_urn="urn:adsk.eagle:package:9899/1"/>
</package3dinstances>
<technologies>
<technology name="">
<attribute name="MF" value="" constant="no"/>
<attribute name="MPN" value="" constant="no"/>
<attribute name="OC_FARNELL" value="unknown" constant="no"/>
<attribute name="OC_NEWARK" value="unknown" constant="no"/>
</technology>
</technologies>
</device>
</devices>
</deviceset>
</devicesets>
</library>
<library name="supply1" urn="urn:adsk.eagle:library:371">
<description>&lt;b&gt;Supply Symbols&lt;/b&gt;&lt;p&gt;
 GND, VCC, 0V, +5V, -5V, etc.&lt;p&gt;
 Please keep in mind, that these devices are necessary for the
 automatic wiring of the supply signals.&lt;p&gt;
 The pin name defined in the symbol is identical to the net which is to be wired automatically.&lt;p&gt;
 In this library the device names are the same as the pin names of the symbols, therefore the correct signal names appear next to the supply symbols in the schematic.&lt;p&gt;
 &lt;author&gt;Created by librarian@cadsoft.de&lt;/author&gt;</description>
<packages>
</packages>
<symbols>
<symbol name="GND" urn="urn:adsk.eagle:symbol:26925/1" library_version="1">
<wire x1="-1.905" y1="0" x2="1.905" y2="0" width="0.254" layer="94"/>
<text x="-2.54" y="-2.54" size="1.778" layer="96">&gt;VALUE</text>
<pin name="GND" x="0" y="2.54" visible="off" length="short" direction="sup" rot="R270"/>
</symbol>
</symbols>
<devicesets>
<deviceset name="GND" urn="urn:adsk.eagle:component:26954/1" prefix="GND" library_version="1">
<description>&lt;b&gt;SUPPLY SYMBOL&lt;/b&gt;</description>
<gates>
<gate name="1" symbol="GND" x="0" y="0"/>
</gates>
<devices>
<device name="">
<technologies>
<technology name=""/>
</technologies>
</device>
</devices>
</deviceset>
</devicesets>
</library>
</libraries>
<attributes>
</attributes>
<variantdefs>
</variantdefs>
<classes>
<class number="0" name="default" width="0" drill="0">
</class>
</classes>
<parts>
<part name="JP1" library="pinhead" library_urn="urn:adsk.eagle:library:325" deviceset="PINHD-1X6" device="" package3d_urn="urn:adsk.eagle:package:22472/2"/>
<part name="JP2" library="pinhead" library_urn="urn:adsk.eagle:library:325" deviceset="PINHD-1X6" device="" package3d_urn="urn:adsk.eagle:package:22472/2"/>
<part name="X1" library="con-ptr500" library_urn="urn:adsk.eagle:library:181" deviceset="AK500/3-H" device="" package3d_urn="urn:adsk.eagle:package:9899/1"/>
<part name="X2" library="con-ptr500" library_urn="urn:adsk.eagle:library:181" deviceset="AK500/3-H" device="" package3d_urn="urn:adsk.eagle:package:9899/1"/>
<part name="X3" library="con-ptr500" library_urn="urn:adsk.eagle:library:181" deviceset="AK500/3-H" device="" package3d_urn="urn:adsk.eagle:package:9899/1"/>
<part name="X4" library="con-ptr500" library_urn="urn:adsk.eagle:library:181" deviceset="AK500/3-H" device="" package3d_urn="urn:adsk.eagle:package:9899/1"/>
<part name="GND1" library="supply1" library_urn="urn:adsk.eagle:library:371" deviceset="GND" device=""/>
</parts>
<sheets>
<sheet>
<plain>
</plain>
<instances>
<instance part="JP1" gate="A" x="63.5" y="76.2" rot="R180"/>
<instance part="JP2" gate="A" x="58.42" y="73.66"/>
<instance part="X1" gate="-1" x="27.94" y="86.36"/>
<instance part="X1" gate="-2" x="27.94" y="81.28"/>
<instance part="X1" gate="-3" x="27.94" y="76.2"/>
<instance part="X2" gate="-1" x="27.94" y="71.12"/>
<instance part="X2" gate="-2" x="27.94" y="66.04"/>
<instance part="X2" gate="-3" x="27.94" y="60.96"/>
<instance part="X3" gate="-1" x="91.44" y="76.2" rot="R180"/>
<instance part="X3" gate="-2" x="91.44" y="81.28" rot="R180"/>
<instance part="X3" gate="-3" x="91.44" y="86.36" rot="R180"/>
<instance part="X4" gate="-1" x="91.44" y="60.96" rot="R180"/>
<instance part="X4" gate="-2" x="91.44" y="66.04" rot="R180"/>
<instance part="X4" gate="-3" x="91.44" y="71.12" rot="R180"/>
<instance part="GND1" gate="1" x="45.72" y="53.34"/>
</instances>
<busses>
</busses>
<nets>
<net name="N$1" class="0">
<segment>
<pinref part="JP2" gate="A" pin="1"/>
<wire x1="55.88" y1="81.28" x2="48.26" y2="81.28" width="0.1524" layer="91"/>
<wire x1="48.26" y1="81.28" x2="48.26" y2="86.36" width="0.1524" layer="91"/>
<pinref part="X1" gate="-1" pin="KL"/>
<wire x1="48.26" y1="86.36" x2="33.02" y2="86.36" width="0.1524" layer="91"/>
</segment>
</net>
<net name="N$2" class="0">
<segment>
<pinref part="JP2" gate="A" pin="2"/>
<wire x1="55.88" y1="78.74" x2="45.72" y2="78.74" width="0.1524" layer="91"/>
<wire x1="45.72" y1="78.74" x2="45.72" y2="81.28" width="0.1524" layer="91"/>
<pinref part="X1" gate="-2" pin="KL"/>
<wire x1="45.72" y1="81.28" x2="33.02" y2="81.28" width="0.1524" layer="91"/>
</segment>
</net>
<net name="N$3" class="0">
<segment>
<pinref part="JP2" gate="A" pin="3"/>
<pinref part="X1" gate="-3" pin="KL"/>
<wire x1="55.88" y1="76.2" x2="33.02" y2="76.2" width="0.1524" layer="91"/>
</segment>
</net>
<net name="N$5" class="0">
<segment>
<pinref part="JP2" gate="A" pin="5"/>
<wire x1="55.88" y1="71.12" x2="48.26" y2="71.12" width="0.1524" layer="91"/>
<wire x1="48.26" y1="71.12" x2="48.26" y2="66.04" width="0.1524" layer="91"/>
<pinref part="X2" gate="-2" pin="KL"/>
<wire x1="48.26" y1="66.04" x2="33.02" y2="66.04" width="0.1524" layer="91"/>
</segment>
</net>
<net name="N$6" class="0">
<segment>
<pinref part="X2" gate="-3" pin="KL"/>
<wire x1="33.02" y1="60.96" x2="50.8" y2="60.96" width="0.1524" layer="91"/>
<wire x1="50.8" y1="60.96" x2="50.8" y2="68.58" width="0.1524" layer="91"/>
<pinref part="JP2" gate="A" pin="6"/>
<wire x1="50.8" y1="68.58" x2="55.88" y2="68.58" width="0.1524" layer="91"/>
</segment>
</net>
<net name="N$7" class="0">
<segment>
<pinref part="JP1" gate="A" pin="1"/>
<wire x1="66.04" y1="68.58" x2="71.12" y2="68.58" width="0.1524" layer="91"/>
<wire x1="71.12" y1="68.58" x2="71.12" y2="60.96" width="0.1524" layer="91"/>
<pinref part="X4" gate="-1" pin="KL"/>
<wire x1="71.12" y1="60.96" x2="86.36" y2="60.96" width="0.1524" layer="91"/>
</segment>
</net>
<net name="N$8" class="0">
<segment>
<pinref part="X4" gate="-2" pin="KL"/>
<wire x1="86.36" y1="66.04" x2="73.66" y2="66.04" width="0.1524" layer="91"/>
<wire x1="73.66" y1="66.04" x2="73.66" y2="71.12" width="0.1524" layer="91"/>
<pinref part="JP1" gate="A" pin="2"/>
<wire x1="73.66" y1="71.12" x2="66.04" y2="71.12" width="0.1524" layer="91"/>
</segment>
</net>
<net name="N$10" class="0">
<segment>
<pinref part="JP1" gate="A" pin="4"/>
<pinref part="X3" gate="-1" pin="KL"/>
<wire x1="66.04" y1="76.2" x2="86.36" y2="76.2" width="0.1524" layer="91"/>
</segment>
</net>
<net name="N$11" class="0">
<segment>
<pinref part="X3" gate="-2" pin="KL"/>
<wire x1="86.36" y1="81.28" x2="76.2" y2="81.28" width="0.1524" layer="91"/>
<wire x1="76.2" y1="81.28" x2="76.2" y2="78.74" width="0.1524" layer="91"/>
<pinref part="JP1" gate="A" pin="5"/>
<wire x1="76.2" y1="78.74" x2="66.04" y2="78.74" width="0.1524" layer="91"/>
</segment>
</net>
<net name="N$12" class="0">
<segment>
<pinref part="JP1" gate="A" pin="6"/>
<wire x1="66.04" y1="81.28" x2="73.66" y2="81.28" width="0.1524" layer="91"/>
<wire x1="73.66" y1="81.28" x2="73.66" y2="86.36" width="0.1524" layer="91"/>
<pinref part="X3" gate="-3" pin="KL"/>
<wire x1="73.66" y1="86.36" x2="86.36" y2="86.36" width="0.1524" layer="91"/>
</segment>
</net>
<net name="N$9" class="0">
<segment>
<pinref part="X4" gate="-3" pin="KL"/>
<wire x1="86.36" y1="71.12" x2="76.2" y2="71.12" width="0.1524" layer="91"/>
<wire x1="76.2" y1="71.12" x2="76.2" y2="73.66" width="0.1524" layer="91"/>
<pinref part="JP1" gate="A" pin="3"/>
<wire x1="76.2" y1="73.66" x2="66.04" y2="73.66" width="0.1524" layer="91"/>
</segment>
</net>
<net name="N" class="0">
<segment>
<pinref part="X2" gate="-1" pin="KL"/>
<pinref part="JP2" gate="A" pin="4"/>
<wire x1="55.88" y1="73.66" x2="45.72" y2="73.66" width="0.1524" layer="91"/>
<wire x1="45.72" y1="73.66" x2="45.72" y2="71.12" width="0.1524" layer="91"/>
<wire x1="45.72" y1="71.12" x2="33.02" y2="71.12" width="0.1524" layer="91"/>
<junction x="45.72" y="71.12"/>
<wire x1="45.72" y1="71.12" x2="45.72" y2="55.88" width="0.1524" layer="91"/>
<pinref part="GND1" gate="1" pin="GND"/>
</segment>
</net>
</nets>
</sheet>
</sheets>
</schematic>
</drawing>
<compatibility>
<note version="8.2" severity="warning">
Since Version 8.2, EAGLE supports online libraries. The ids
of those online libraries will not be understood (or retained)
with this version.
</note>
<note version="8.3" severity="warning">
Since Version 8.3, EAGLE supports URNs for individual library
assets (packages, symbols, and devices). The URNs of those assets
will not be understood (or retained) with this version.
</note>
<note version="8.3" severity="warning">
Since Version 8.3, EAGLE supports the association of 3D packages
with devices in libraries, schematics, and board files. Those 3D
packages will not be understood (or retained) with this version.
</note>
</compatibility>
</eagle>
